<svg width="117" height="108" viewBox="0 0 117 108" fill="none" xmlns="http://www.w3.org/2000/svg">
<path d="M30.4663 85.3137C22.6613 85.3137 15.7192 80.3168 13.1988 72.8774L13.0282 72.3168C12.4334 70.3473 12.1848 68.6898 12.1848 67.0322V33.7941L0.357885 73.2723C-1.16313 79.0785 2.30304 85.0992 8.11899 86.7031L83.5021 106.891C84.443 107.135 85.3839 107.252 86.3101 107.252C91.1657 107.252 95.602 104.029 96.8451 99.2808L101.238 85.3137H30.4663Z" fill="#DDDDDD"/>
<path d="M43.8751 34.1254C49.2523 34.1254 53.6253 29.7524 53.6253 24.3752C53.6253 18.9981 49.2523 14.6251 43.8751 14.6251C38.4979 14.6251 34.125 18.9981 34.125 24.3752C34.125 29.7524 38.4979 34.1254 43.8751 34.1254Z" fill="#DDDDDD"/>
<path d="M104.812 0H31.6857C24.9679 0 19.498 5.46982 19.498 12.1877V65.8133C19.498 72.5312 24.9679 78.001 31.6857 78.001H104.812C111.529 78.001 116.999 72.5312 116.999 65.8133V12.1877C116.999 5.46982 111.529 0 104.812 0ZM31.6857 9.75013H104.812C106.157 9.75013 107.249 10.8421 107.249 12.1877V46.7957L91.8489 28.8262C90.2157 26.9103 87.8513 25.8866 85.3114 25.8281C82.7861 25.8427 80.4168 26.964 78.7983 28.9042L60.6923 50.6373L54.7935 44.7531C51.459 41.4185 46.033 41.4185 42.7034 44.7531L29.2482 58.2034V12.1877C29.2482 10.8421 30.3402 9.75013 31.6857 9.75013Z" fill="#DDDDDD"/>
</svg>
