<svg width="25" height="23" viewBox="0 0 25 23" fill="none" xmlns="http://www.w3.org/2000/svg">
<path d="M6.50067 18.2036C4.8353 18.2036 3.35405 17.1374 2.81626 15.55L2.77986 15.4304C2.65295 15.0102 2.5999 14.6565 2.5999 14.3028V7.21069L0.0763629 15.6343C-0.248181 16.8732 0.491405 18.1578 1.73237 18.5L17.8171 22.8075C18.0178 22.8595 18.2186 22.8845 18.4162 22.8845C19.4523 22.8845 20.3989 22.1969 20.6641 21.1838L21.6013 18.2036H6.50067Z" fill="white"/>
<path d="M9.36166 7.28143C10.509 7.28143 11.4421 6.34836 11.4421 5.20102C11.4421 4.05367 10.509 3.12061 9.36166 3.12061C8.21431 3.12061 7.28125 4.05367 7.28125 5.20102C7.28125 6.34836 8.21431 7.28143 9.36166 7.28143Z" fill="white"/>
<path d="M22.3638 0H6.76067C5.32727 0 4.16016 1.16711 4.16016 2.60051V14.0428C4.16016 15.4762 5.32727 16.6433 6.76067 16.6433H22.3638C23.7972 16.6433 24.9643 15.4762 24.9643 14.0428V2.60051C24.9643 1.16711 23.7972 0 22.3638 0ZM6.76067 2.08041H22.3638C22.6508 2.08041 22.8839 2.31342 22.8839 2.60051V9.98493L19.5978 6.15073C19.2494 5.74193 18.7449 5.52349 18.2029 5.51101C17.6641 5.51413 17.1586 5.75338 16.8132 6.16738L12.9499 10.8046L11.6912 9.54909C10.9797 8.83759 9.82199 8.83759 9.11153 9.54909L6.24057 12.419V2.60051C6.24057 2.31342 6.47357 2.08041 6.76067 2.08041Z" fill="white"/>
</svg>
