<svg width="22" height="19" viewBox="0 0 22 19" fill="none" xmlns="http://www.w3.org/2000/svg">
<path d="M15.6552 1C13.7253 1.00016 11.9454 1.97698 11 3.55522C10.0546 1.97698 8.27472 1.00016 6.34483 1C3.39308 1 1 3.56817 1 6.33693C1 13.2911 11 18.1429 11 18.1429C11 18.1429 21 13.2911 21 6.33693C21 3.56817 18.6069 1 15.6552 1Z" stroke="#B0BD75" stroke-width="1.5" stroke-linejoin="round"/>
</svg>
