<svg width="24" height="24" viewBox="0 0 24 24" fill="none" xmlns="http://www.w3.org/2000/svg">
<path d="M15.2586 6C13.9077 6.00011 12.6618 6.68389 12 7.78866C11.3382 6.68389 10.0923 6.00011 8.74138 6C6.67516 6 5 7.79772 5 9.73585C5 14.6038 12 18 12 18C12 18 19 14.6038 19 9.73585C19 7.79772 17.3248 6 15.2586 6Z" stroke="#B0BD75" stroke-width="1.5" stroke-linejoin="round"/>
</svg>
