<svg width="23" height="22" viewBox="0 0 23 22" fill="none" xmlns="http://www.w3.org/2000/svg">
<circle cx="11" cy="11" r="10" stroke="#B0BD75" stroke-width="2"/>
<line x1="8" y1="11" x2="14" y2="11" stroke="#B0BD75" stroke-width="2" stroke-linecap="round"/>
<line x1="11" y1="8" x2="11" y2="14" stroke="#B0BD75" stroke-width="2" stroke-linecap="round"/>
<path d="M19 18L22 21" stroke="#B0BD75" stroke-width="2" stroke-linecap="round"/>
</svg>
