<svg width="252" height="80" viewBox="0 0 252 80" fill="none" xmlns="http://www.w3.org/2000/svg">
<g clip-path="url(#clip0_623_2384)">
<path d="M136.3 43.8L133.7 42.5L131.3 40L145.4 19.9L144.6 16.8L141.5 18.7001H106.5L118.5 35.8L121.5 41.2001L118.5 46.2001H136.3V43.8Z" fill="#A67551"/>
<path d="M228.401 16.7L248.801 35.2L246.101 38.5999L244.601 39.4L192.301 40.5L193.701 42L190.601 44.9L175.001 32.2999L160.701 47.2999L157.201 45.0999L156.201 42L136.301 41.7999L133.301 42.5999L130.801 39.4L146.101 18.2L189.801 16.7H228.401Z" fill="#4A4F54"/>
<path d="M245.401 71L244.501 39.1L193.001 40.6L190.801 44.4L163.401 44.7L159.201 47.6L156.201 42L136.301 42.2L137.501 74L160.001 73.4V76.8H190.801V72.5L245.401 71Z" fill="#A67551"/>
<path d="M235.8 63.5999C235.2 63.5999 234.5 63.3999 233.9 63.3999C232.6 63.2999 231.9 63.3999 231.6 61.8999C231.2 59.8999 231.4 57.7999 230.9 55.6999C230.3 53.2999 230.3 50.7999 230.6 48.3999C230.7 47.3999 230.8 45.8999 231.7 45.3999C232.7 44.8999 234.1 44.8999 235.2 44.8999C237.6 44.8999 240.1 44.9999 242.5 44.8999C242.9 44.8999 243.6 44.6999 243.9 44.9999C244.3 45.3999 244.3 46.4999 244.4 47.0999C244.6 48.7999 244.6 50.4999 244.5 52.1999C244.4 53.2999 244.1 54.2999 243.8 55.3999C243.5 56.6999 243.4 58.2999 242.6 59.4999C241.3 61.3999 239.2 62.4999 237.1 63.2999" fill="#866349"/>
<path d="M136.801 65.9L137.101 68.8C137.101 68.8 147.901 68.9 150.101 68.8C152.301 68.7 154.201 68.8 154.701 67.9C155.201 66.9 155.401 65.2 155.401 65.2C155.401 65.2 154.001 65.8 151.401 65.8C148.801 65.7 136.801 65.9 136.801 65.9Z" fill="#866349"/>
<path d="M173.401 72.8C166.701 73.1 161.501 73.4 160.301 73.5L159.601 71.2C159.601 71.2 141.401 71.7 139.101 71.9C136.801 72.1 137.401 74 137.401 74L137.301 74.3H159.001L159.901 76.7L189.901 76.1L190.201 73C190.301 73.1 180.901 72.4 173.401 72.8Z" fill="#866349"/>
<path d="M192 71.9C191.7 71.7 191.7 70.5 191.7 70C192 68.4 192.7 69.2 193.8 69C194.3 66.7 194.1 63.9 194.1 61.5C194.2 58.7 194.6 55.9999 195.1 53.2999C195.4 51.7999 196 50.4 196.5 48.9999C197 47.2999 197 46.6999 199 46.5999C201.7 46.3999 204.4 46.5 207.2 46.4C208.4 46.4 209.6 46.4 210.7 46.4C211.6 46.4 214.4 46.1 215 46.7C215.6 47.3 215.4 49.7999 215.4 50.5999C215.5 52.0999 215.5 53.5999 215.5 55.0999C215.6 59.8999 215.6 64.9 216.5 69.5C216.5 69.5 230.3 68.1 232.3 68.4C234.3 68.7 244.4 69.0999 244.9 69.1999C245.4 69.2999 245.4 71.0999 245.4 71.0999L244.2 72.4H192.2L192 71.9Z" fill="#866349"/>
<path d="M134.201 48.5999C134.001 49.2999 133.301 49.9 132.901 50.5C132.701 50.9 132.501 51.4 132.401 51.9C132.301 52.5 132.301 52.4999 133.001 52.5999C135.001 52.7999 137.001 52.7999 139.001 52.7999C143.401 52.7999 147.901 52.6999 152.301 52.7999C153.801 52.7999 153.701 52 154.001 50.7C154.201 49.5 154.201 48.4 152.801 48.5C150.701 48.6 148.701 48.2 146.701 48.2C144.501 48.2 142.401 48.7 140.301 48.5C138.501 48.3 136.701 48.0999 135.001 48.2999" fill="#494E55"/>
<path d="M159.7 49.2C159.3 49.2 158.9 49 158.6 48.7999L156.8 47.0999C156.6 46.8999 156.5 46.7 156.4 46.5L155.4 43.5999L135.7 43.5L133.9 44.0999C133.3 44.2999 132.7 44.0999 132.3 43.5999L129.6 40.5C129.1 40 129.1 39.1999 129.5 38.5999L144.2 19L145.6 17.2C145.9 16.9 146.3 16.6 146.7 16.6L227.9 15.2C228.3 15.2 228.6 15.3 228.9 15.5L250.7 33.7C251 34 251.2 34.3 251.2 34.7C251.2 35.1 251.1 35.5 250.8 35.7999L247.4 39.7C247.2 40 246.9 40.1 246.5 40.2L244.6 40.5C244.5 40.5 244.5 40.5 244.4 40.5L194.9 42L191.7 45.9C191.2 46.5 190.3 46.5999 189.6 46.0999L174.4 34.2999L160.7 48.7C160.5 49 160.1 49.1 159.7 49.2ZM159.2 45.0999L159.6 45.5L173.2 31.2C173.7 30.6 174.6 30.6 175.2 31.1L190.3 42.9L193 39.5999C193.3 39.2999 193.7 39.1 194.1 39L244.3 37.7L245.5 37.5L247.5 35.2L227.3 18.3L147.3 19.7L146.3 20.9L132.5 39.5L133.7 41L134.8 40.5999C135 40.4999 135.1 40.5 135.3 40.5L156.3 40.5999C156.9 40.5999 157.5 40.9999 157.7 41.5999L159.2 45.0999Z" fill="#383E45"/>
<path d="M217.3 55.4L196 55.2C195.5 55.2 195.1 54.9999 194.8 54.5999C194.5 54.1999 194.4 53.6999 194.6 53.2999C194.6 53.2999 196.3 47.9999 196.4 47.7999C196.6 47.1999 197.2 46.7 197.9 46.7L215.5 47C216.1 47 216.7 47.4 216.9 48L218.7 53.5C218.9 54 218.8 54.5 218.5 54.9C218.3 55.2 217.8 55.4 217.3 55.4ZM198.1 52.2L215.2 52.4L214.4 49.9L198.9 49.5999C198.7 50.3999 198.4 51.3 198.1 52.2Z" fill="#383E45"/>
<path d="M232.601 53.5999C232.201 53.5999 231.801 53.3999 231.501 53.1999C231.201 52.8999 231.101 52.4999 231.101 52.0999V48.0999C231.101 47.2999 231.801 46.5999 232.601 46.5999L248.601 46.2999C249.301 46.2999 249.901 46.6999 250.101 47.3999L251.301 51.3999C251.401 51.7999 251.401 52.2999 251.101 52.6999C250.801 53.0999 250.401 53.2999 249.901 53.2999L232.601 53.5999ZM234.101 49.5999V50.5999L247.701 50.3999L247.401 49.3999L234.101 49.5999Z" fill="#383E45"/>
<path d="M227.001 53H223.001L221.101 56.2L222.801 60L227.001 60.4L229.501 56L227.001 53Z" fill="#9FCCCA"/>
<path d="M248.8 52.7999H233.4V57.9999H248.8V52.7999Z" fill="#9FCCCA"/>
<path d="M215.8 58.7H197.2V67.5999H215.8V58.7Z" fill="#9FCCCA"/>
<path d="M182.7 50.2999H167.7V63.3999H182.7V50.2999Z" fill="#9FCCCA"/>
<path d="M154.3 53.5H134V60.3H154.3V53.5Z" fill="#9FCCCA"/>
<path d="M154.1 60.7H134V65.0999H154.1V60.7Z" fill="#7B4E2E"/>
<path d="M216.101 54.7999H196.801V57.8999H216.101V54.7999Z" fill="#7B4E2E"/>
<path d="M216.101 68.2999H197.301V72.3999H216.101V68.2999Z" fill="#7B4E2E"/>
<path d="M248.5 58.7H233.2V62.0999H248.5V58.7Z" fill="#7B4E2E"/>
<path d="M173.7 33.1C172.7 34.1 171.2 35.9 170.2 36.9C168.8 38.3 167.6 39.9 166.3 41.4C165.8 42 164.8 42.7 164.5 43.3C164.2 44.1 165.3 44.2 165.9 44.2C167.7 44.4 169.5 44.4 171.3 44.4C172.8 44.4 174.2 44.4 175.7 44.3C176.7 44.2 178.1 44.4 179 44.2" fill="#F8F6F5"/>
<path d="M173.7 33.0999C174.9 32.5999 176 33.5999 177 34.1999C179 35.2999 180.7 36.7999 182.5 38.1999C184.2 39.4999 186.1 40.6999 187.5 42.2999C187.9 42.6999 188.2 42.9999 188.5 43.3999C188.9 43.7999 188.8 43.9999 188.3 44.1999C187.4 44.4999 186.4 44.2999 185.5 44.1999C184.1 44.0999 182.7 43.9999 181.3 44.0999C180.5 44.0999 179.5 44.0999 178.7 44.1999" fill="#D8D6D6"/>
<path d="M249.101 51.3999H232.601V48.2999H248.301L249.101 51.3999Z" fill="#4A4F54"/>
<path d="M160.001 77.8999C159.201 77.8999 158.501 77.1999 158.501 76.3999L158.101 47.5999C158.101 46.7999 158.801 46.0999 159.601 46.0999C160.401 46.0999 161.101 46.7999 161.101 47.5999L161.501 74.8999L188.801 74.6999V44.8999C188.801 44.0999 189.501 43.3999 190.301 43.3999C191.101 43.3999 191.801 44.0999 191.801 44.8999V76.0999C191.801 76.8999 191.101 77.5999 190.301 77.5999L160.001 77.8999C160.101 77.8999 160.001 77.8999 160.001 77.8999Z" fill="#383E45"/>
<path d="M174.801 33.5999C174.101 33.5999 173.501 33.3999 172.801 32.8999C172.401 32.5999 172.001 32.3999 171.801 32.2999C171.101 31.8999 170.201 31.3999 170.201 29.9999C170.101 27.9999 170.501 26.5999 171.301 25.7999C171.701 25.3999 172.901 24.4999 174.601 24.4999C175.301 24.4999 176.001 24.6999 176.601 24.9999C178.101 25.8999 179.101 26.8999 179.301 28.0999C179.401 28.6999 179.401 29.6999 178.601 30.7999C177.901 31.9999 176.701 33.5999 174.801 33.5999ZM173.201 29.6999C173.201 29.6999 173.301 29.6999 173.301 29.7999C173.601 29.9999 174.001 30.1999 174.501 30.4999C174.701 30.5999 174.801 30.5999 174.801 30.5999C174.901 30.5999 175.301 30.3999 176.201 29.0999C176.301 28.9999 176.401 28.8999 176.301 28.7999C176.301 28.5999 176.001 28.1999 175.001 27.6999C174.401 27.3999 173.701 27.7999 173.301 28.0999C173.401 28.0999 173.201 28.5999 173.201 29.6999ZM173.201 29.8999L171.701 30.0999L173.201 29.9999V29.8999Z" fill="#383E45"/>
<path d="M190.6 46.4C190.3 46.4 189.9 46.3 189.6 46L174.8 33.5C174.2 33 174.1 32 174.6 31.4C175.1 30.8 176.1 30.7 176.7 31.2L190.5 42.8L191.5 41.7L176.8 29.2C176.2 28.7 176.1 27.7 176.6 27.1C177.1 26.5 178.1 26.4 178.7 26.9L194.6 40.4C194.9 40.7 195.1 41 195.1 41.5C195.1 41.9 195 42.3 194.7 42.6L191.6 45.9C191.4 46.3 191 46.4 190.6 46.4Z" fill="#383E45"/>
<path d="M159.701 49.1999C159.501 49.1999 159.301 49.1999 159.101 49.0999C158.001 48.8999 157.301 48.0999 157.001 47.4999L155.201 44.0999C154.901 43.4999 155.001 42.7999 155.501 42.2999L170.101 28.4999C170.701 27.8999 171.601 27.9999 172.201 28.5999C172.801 29.1999 172.701 30.0999 172.101 30.6999L158.401 43.7999L159.701 46.2999C159.801 46.2999 160.001 46.0999 160.301 45.8999C161.901 44.3999 170.501 34.5999 173.701 30.8999C174.201 30.2999 175.201 30.1999 175.801 30.6999C176.401 31.1999 176.501 32.1999 176.001 32.7999C175.501 33.2999 164.501 46.0999 162.401 47.9999C161.401 48.6999 160.501 49.1999 159.701 49.1999Z" fill="#383E45"/>
<path d="M151.701 24.9999H151.601C150.801 24.8999 148.201 24.5999 147.001 23.4999C146.001 22.5999 144.901 21.3999 144.901 21.3999L144.801 21.2999C144.501 20.8999 143.501 19.3999 144.201 17.9999C144.501 17.3999 145.201 16.6999 146.901 16.6999C149.401 16.6999 225.801 15.2999 226.601 15.2999H226.701C227.301 15.2999 228.001 15.6999 228.501 16.3999C229.001 17.1999 229.001 18.0999 228.501 19.1999C228.401 19.4999 228.301 19.8999 228.201 20.2999C228.001 21.5999 227.701 23.8999 224.301 23.8999C221.201 23.8999 152.401 24.9999 151.701 24.9999ZM147.301 19.5999C147.701 19.9999 148.301 20.6999 149.001 21.1999C149.301 21.4999 150.701 21.7999 151.801 21.8999C155.601 21.7999 221.301 20.7999 224.201 20.7999C224.801 20.7999 225.001 20.6999 225.001 20.6999C225.101 20.5999 225.201 20.0999 225.201 19.7999C225.301 19.2999 225.301 18.7999 225.501 18.1999C216.201 18.3999 153.901 19.4999 147.301 19.5999Z" fill="#383E45"/>
<path d="M133.801 44.0999C132.701 44.0999 131.801 43.4999 131.401 42.9999C131.201 42.7999 130.101 41.4999 130.001 41.3999C128.801 39.9999 129.301 38.3999 130.001 37.5999L144.201 18.9999C144.501 18.6999 144.801 18.4999 145.201 18.3999C145.601 18.3999 146.001 18.4999 146.301 18.7999L150.401 22.3999C151.001 22.8999 151.101 23.7999 150.601 24.3999C150.201 24.9999 140.701 38.5999 137.801 41.7999C136.501 43.2999 135.101 44.0999 133.801 44.0999ZM133.801 40.9999C133.801 40.9999 133.801 41.0999 133.801 40.9999C133.901 40.9999 134.501 40.9999 135.701 39.6999C138.001 37.1999 145.101 26.9999 147.501 23.6999L145.601 22.0999L132.401 39.4999C132.701 39.7999 133.701 40.9999 133.801 40.9999C133.701 40.9999 133.701 40.9999 133.801 40.9999Z" fill="#383E45"/>
<path d="M136.301 49.9999C135.501 49.9999 134.801 49.2999 134.801 48.4999V42.1999C134.801 41.3999 135.501 40.6999 136.301 40.6999L157.901 40.2999C158.801 40.2999 159.401 40.8999 159.401 41.7999C159.401 42.5999 158.801 43.2999 157.901 43.2999L137.801 43.6999V48.4999C137.801 49.2999 137.101 49.9999 136.301 49.9999Z" fill="#383E45"/>
<path d="M145.601 43.4999C144.701 43.4999 144.101 42.7999 144.101 41.8999C144.401 36.0999 144.601 29.5999 144.501 28.5999C144.401 27.8999 144.701 27.1999 145.301 26.8999C146.101 26.5999 146.901 26.8999 147.301 27.5999C147.501 27.9999 147.601 28.2999 147.101 41.8999C147.101 42.8999 146.401 43.4999 145.601 43.4999Z" fill="#383E45"/>
<path d="M153.001 43.4H152.901C152.101 43.3 151.501 42.6 151.501 41.8C152.101 34.7 153.101 24 153.101 23.5C153.101 22.7 153.801 22.1 154.601 22.1C155.401 22.1 156.101 22.8 156.101 23.6C156.101 23.7 156.101 24 154.501 42.1C154.401 42.8 153.801 43.4 153.001 43.4Z" fill="#383E45"/>
<path d="M161.201 40.0999H161.101C160.301 39.9999 159.701 39.2999 159.701 38.4999L160.801 23.3999C160.901 22.5999 161.601 21.9999 162.401 21.9999C163.201 22.0999 163.801 22.7999 163.801 23.5999L162.701 38.6999C162.601 39.4999 162.001 40.0999 161.201 40.0999Z" fill="#383E45"/>
<path d="M168.4 33.5999C167.6 33.5999 166.9 32.8999 166.9 32.0999V23.4999C166.9 22.6999 167.6 21.9999 168.4 21.9999C169.2 21.9999 169.9 22.6999 169.9 23.4999V32.0999C169.9 32.8999 169.3 33.5999 168.4 33.5999Z" fill="#383E45"/>
<path d="M154.201 54.3999H131.701C131.201 54.3999 130.701 54.0999 130.401 53.6999C130.101 53.2999 130.101 52.6999 130.301 52.1999L132.601 47.7999C132.901 47.2999 133.401 46.9999 133.901 46.9999H154.501C154.901 46.9999 155.301 47.1999 155.601 47.4999C155.901 47.7999 156.001 48.1999 156.001 48.5999L155.601 52.9999C155.701 53.7999 155.001 54.3999 154.201 54.3999ZM134.201 51.3999H152.901L153.001 49.9999H134.901L134.201 51.3999Z" fill="#383E45"/>
<path d="M150.901 66.8C144.901 66.8 134.501 66.4 133.901 66.3C133.101 66.3 132.501 65.6 132.501 64.8V53.5C132.501 52.7 133.201 52 134.001 52C134.801 52 135.501 52.7 135.501 53.5V63.4C139.101 63.5 148.501 63.9 152.701 63.8L153.101 49.1C153.101 48.3 153.801 47.6 154.601 47.6C155.401 47.6 156.101 48.3 156.101 49.1L155.601 65.2C155.601 66 155.001 66.6 154.201 66.7C153.501 66.7 152.301 66.8 150.901 66.8Z" fill="#383E45"/>
<path d="M134.4 62.2C133.6 62.2 132.9 61.6 132.9 60.7C132.9 59.9 133.5 59.2 134.4 59.2L154.2 58.7C155 58.7 155.7 59.3 155.7 60.2C155.7 61 155.1 61.7 154.2 61.7L134.4 62.2C134.5 62.2 134.5 62.2 134.4 62.2Z" fill="#383E45"/>
<path d="M149.101 62.1999C148.301 62.1999 147.601 61.4999 147.601 60.6999V52.8999C147.601 52.0999 148.301 51.3999 149.101 51.3999C149.901 51.3999 150.601 52.0999 150.601 52.8999V60.6999C150.601 61.5999 150.001 62.1999 149.101 62.1999Z" fill="#383E45"/>
<path d="M144.301 62.2C143.601 62.2 143.001 61.7 142.801 61C142.601 60.2 142.701 58 143.101 53.7C143.101 53.4 143.101 53.1999 143.101 53.0999C143.101 52.2999 143.801 51.7 144.601 51.7C145.401 51.7 146.101 52.4 146.101 53.2C146.101 53.2 146.101 53.5 146.001 53.9C145.601 58.8 145.601 60.1 145.701 60.4C145.801 61.2 145.301 61.9999 144.501 62.0999C144.501 62.1999 144.401 62.2 144.301 62.2Z" fill="#383E45"/>
<path d="M138.101 62C137.301 62 136.601 61.3 136.601 60.5V53.2C136.601 52.4 137.301 51.7 138.101 51.7C138.901 51.7 139.601 52.4 139.601 53.2V60.5C139.601 61.3 138.901 62 138.101 62Z" fill="#383E45"/>
<path d="M159.701 75.4999C159.601 75.4999 159.601 75.4999 159.701 75.4999L137.001 75.1999C136.201 75.1999 135.501 74.4999 135.501 73.6999V65.2999C135.501 64.4999 136.201 63.7999 137.001 63.7999C137.801 63.7999 138.501 64.4999 138.501 65.2999V72.1999L159.701 72.4999C160.501 72.4999 161.201 73.1999 161.201 73.9999C161.101 74.7999 160.501 75.4999 159.701 75.4999Z" fill="#383E45"/>
<path d="M188.901 45.7999H163.701C162.901 45.7999 162.201 45.0999 162.201 44.2999C162.201 43.4999 162.901 42.7999 163.701 42.7999H188.901C189.701 42.7999 190.401 43.4999 190.401 44.2999C190.401 45.0999 189.801 45.7999 188.901 45.7999Z" fill="#383E45"/>
<path d="M184.3 41.9999H168.4C167.6 41.9999 166.9 41.2999 166.9 40.4999C166.9 39.6999 167.6 38.9999 168.4 38.9999H184.3C185.1 38.9999 185.8 39.6999 185.8 40.4999C185.8 41.2999 185.1 41.9999 184.3 41.9999Z" fill="#383E45"/>
<path d="M177.601 65.0999C175.301 65.0999 172.801 64.9999 171.201 64.8999C170.501 64.8999 170.001 64.8999 169.801 64.7999C168.201 64.7999 167.001 64.4999 166.501 63.8999C166.201 63.5999 166.101 63.1999 166.101 62.7999C166.201 59.3999 166.401 50.4999 166.401 50.1999C166.401 49.3999 167.101 48.6999 167.901 48.6999C168.301 48.6999 178.101 48.3999 180.801 48.3999H181.201C183.901 48.3999 184.501 49.6999 184.601 50.1999C184.601 50.2999 184.601 50.3999 184.601 50.5999C184.501 54.8999 184.301 61.9999 184.301 62.6999C184.301 63.1999 184.201 63.5999 183.801 63.9999C183.101 64.6999 182.301 65.0999 177.601 65.0999ZM169.001 61.8999C169.201 61.8999 169.401 61.8999 169.701 61.8999C170.001 61.8999 170.501 61.8999 171.201 61.9999C172.801 62.0999 175.301 62.1999 177.501 62.1999C179.401 62.1999 180.501 62.0999 181.101 62.0999C181.101 59.5999 181.301 53.9999 181.401 51.6999C181.301 51.6999 181.101 51.6999 180.901 51.6999H180.601C178.601 51.6999 172.101 51.8999 169.201 51.8999C169.201 54.2999 169.001 59.2999 169.001 61.8999Z" fill="#383E45"/>
<path d="M175.501 64.8C174.701 64.8 174.001 64.0999 174.001 63.2999V50.7C174.001 49.9 174.701 49.2 175.501 49.2C176.301 49.2 177.001 49.9 177.001 50.7V63.4C177.001 64.2 176.301 64.8 175.501 64.8Z" fill="#383E45"/>
<path d="M182.801 56.2999H167.701C166.901 56.2999 166.201 55.5999 166.201 54.7999C166.201 53.9999 166.901 53.2999 167.701 53.2999H182.801C183.601 53.2999 184.301 53.9999 184.301 54.7999C184.301 55.5999 183.601 56.2999 182.801 56.2999Z" fill="#383E45"/>
<path d="M182.801 60.4999H167.701C166.901 60.4999 166.201 59.7999 166.201 58.9999C166.201 58.1999 166.901 57.4999 167.701 57.4999H182.801C183.601 57.4999 184.301 58.1999 184.301 58.9999C184.301 59.8999 183.601 60.4999 182.801 60.4999Z" fill="#383E45"/>
<path d="M182.6 33.7999C181.8 33.7999 181.2 33.1999 181.1 32.3999L180.2 23.5999C180.1 22.7999 180.7 21.9999 181.5 21.9999C182.3 21.8999 183.1 22.4999 183.1 23.2999L184 32.0999C184.1 32.8999 183.5 33.6999 182.7 33.6999C182.7 33.7999 182.7 33.7999 182.6 33.7999Z" fill="#383E45"/>
<path d="M191.001 40.8999C190.301 40.8999 189.601 40.2999 189.501 39.5999L187.401 23.3999C187.301 22.5999 187.901 21.7999 188.701 21.6999C189.501 21.5999 190.301 22.1999 190.401 22.9999L192.501 39.1999C192.601 39.9999 192.001 40.7999 191.201 40.8999C191.201 40.8999 191.101 40.8999 191.001 40.8999Z" fill="#383E45"/>
<path d="M199.801 41.9999C199.101 41.9999 198.401 41.4999 198.301 40.6999C195.701 23.4999 195.701 23.1999 195.801 22.8999C196.001 22.0999 196.801 21.5999 197.601 21.6999C198.301 21.7999 198.801 22.4999 198.801 23.1999C198.901 24.1999 200.401 34.1999 201.301 40.2999C201.401 41.0999 200.901 41.8999 200.001 41.9999C200.001 41.9999 199.901 41.9999 199.801 41.9999Z" fill="#383E45"/>
<path d="M210.2 41.5C209.5 41.5 208.9 41 208.7 40.4C204.4 23.6 204.4 23.5 204.4 23.2C204.4 22.4 205.1 21.7 205.9 21.7C206.6 21.7 207.3 22.2 207.4 23C207.6 23.8 210 33.3999 211.6 39.5999C211.8 40.3999 211.3 41.2 210.5 41.4C210.5 41.5 210.3 41.5 210.2 41.5Z" fill="#383E45"/>
<path d="M220.001 41.4999C219.401 41.4999 218.801 41.0999 218.601 40.4999C212.301 22.8999 212.301 22.8999 212.301 22.4999C212.301 21.6999 213.001 20.9999 213.801 20.9999C214.501 20.9999 215.101 21.4999 215.201 22.0999C215.501 22.8999 219.001 32.8999 221.401 39.4999C221.701 40.2999 221.301 41.0999 220.501 41.3999C220.301 41.3999 220.201 41.4999 220.001 41.4999Z" fill="#383E45"/>
<path d="M228.801 40.9C228.201 40.9 227.701 40.6 227.401 40C219.601 23.2 219.601 22.9 219.501 22.6C219.401 21.8 219.901 21 220.701 20.9C221.501 20.8 222.201 21.2 222.401 21.9C222.801 22.9 227.201 32.4 230.101 38.7C230.401 39.5 230.101 40.3 229.401 40.7C229.301 40.9 229.001 40.9 228.801 40.9Z" fill="#383E45"/>
<path d="M246.401 40.2999C246.101 40.2999 245.701 40.1999 245.501 39.9999C224.901 23.5999 224.901 23.5999 224.701 23.0999C224.401 22.2999 224.801 21.4999 225.601 21.1999C226.201 20.9999 226.801 21.0999 227.201 21.5999C228.101 22.3999 238.601 30.7999 246.301 36.8999L247.701 35.2999L227.701 18.5999L227.501 18.6999C226.701 18.9999 225.901 18.5999 225.601 17.7999C225.301 16.9999 225.701 16.1999 226.501 15.8999L227.501 15.5999C228.001 15.3999 228.601 15.4999 229.001 15.8999L250.801 34.0999C251.101 34.3999 251.301 34.6999 251.301 35.0999C251.301 35.4999 251.201 35.8999 250.901 36.1999L247.501 40.0999C247.201 40.0999 246.801 40.2999 246.401 40.2999Z" fill="#383E45"/>
<path d="M227.501 61.8999H223.001C222.401 61.8999 221.901 61.5999 221.701 61.0999L219.801 57.3999C219.601 56.8999 219.601 56.3999 219.901 55.8999L222.201 52.1999C222.501 51.7999 223.001 51.4999 223.501 51.4999H227.201C227.701 51.4999 228.101 51.6999 228.401 52.0999L230.901 55.1999C231.301 55.6999 231.301 56.2999 231.101 56.7999L229.001 61.0999C228.601 61.4999 228.101 61.8999 227.501 61.8999ZM223.901 58.8999H226.501L227.701 56.2999L226.201 54.4999H224.101L222.701 56.7999L223.901 58.8999Z" fill="#383E45"/>
<path d="M245.001 49.1C244.201 49.1 243.501 48.4 243.501 47.6V40.7L193.201 42C192.401 42 191.701 41.4 191.701 40.5C191.701 39.7 192.301 39 193.201 39L245.001 37.6C245.401 37.6 245.801 37.7 246.101 38C246.401 38.3 246.601 38.7 246.601 39.1V47.6C246.501 48.5 245.801 49.1 245.001 49.1Z" fill="#383E45"/>
<path d="M190.301 74.2999C189.501 74.2999 188.801 73.5999 188.801 72.7999C188.801 71.9999 189.501 71.2999 190.301 71.2999L243.901 70.4999L244.101 62.4999C244.101 61.6999 244.801 60.9999 245.601 60.9999C246.401 60.9999 247.101 61.6999 247.101 62.4999L246.801 71.9999C246.801 72.7999 246.101 73.3999 245.301 73.4999L190.301 74.2999C190.401 74.2999 190.401 74.2999 190.301 74.2999Z" fill="#383E45"/>
<path d="M249.8 53.5999L232.4 53.3999C231.6 53.3999 230.9 52.6999 230.9 51.8999V47.7999C230.9 46.9999 231.6 46.2999 232.4 46.2999H248.6C249.3 46.2999 249.8 46.6999 250 47.3999L251.3 51.5999C251.4 52.0999 251.3 52.5999 251.1 52.8999C250.7 53.3999 250.3 53.5999 249.8 53.5999ZM233.9 50.3999L247.8 50.5999L247.4 49.3999H233.9V50.3999Z" fill="#383E45"/>
<path d="M248.601 63.5999H233.201C232.401 63.5999 231.701 62.8999 231.701 62.0999V52.5999C231.701 51.7999 232.401 51.0999 233.201 51.0999C234.001 51.0999 234.701 51.7999 234.701 52.5999V60.5999H247.101L247.301 51.9999C247.301 51.1999 248.001 50.4999 248.801 50.4999C249.601 50.4999 250.301 51.1999 250.301 51.9999L250.101 61.9999C250.001 62.9999 249.401 63.5999 248.601 63.5999Z" fill="#383E45"/>
<path d="M248.501 59.3999H233.801C233.001 59.3999 232.301 58.6999 232.301 57.8999C232.301 57.0999 233.001 56.3999 233.801 56.3999H248.501C249.301 56.3999 250.001 57.0999 250.001 57.8999C250.001 58.6999 249.301 59.3999 248.501 59.3999Z" fill="#383E45"/>
<path d="M241.801 59.4C241.001 59.4 240.301 58.7 240.301 57.9V52.7C240.301 51.9 241.001 51.2 241.801 51.2C242.601 51.2 243.301 51.9 243.301 52.7V57.9C243.301 58.7 242.701 59.4 241.801 59.4Z" fill="#383E45"/>
<path d="M245.001 59.4C244.201 59.4 243.501 58.7 243.501 57.9V52.7C243.501 51.9 244.201 51.2 245.001 51.2C245.801 51.2 246.501 51.9 246.501 52.7V57.9C246.501 58.7 245.801 59.4 245.001 59.4Z" fill="#383E45"/>
<path d="M237.4 59.4C236.6 59.4 235.9 58.7 235.9 57.9V52.7C235.9 51.9 236.6 51.2 237.4 51.2C238.2 51.2 238.9 51.9 238.9 52.7V57.9C238.9 58.7 238.3 59.4 237.4 59.4Z" fill="#383E45"/>
<path d="M217.301 55.4H196.001C195.501 55.4 195.101 55.1999 194.801 54.7999C194.501 54.3999 194.401 53.9 194.601 53.5C195.301 51.4 196.301 47.9999 196.401 47.7999C196.601 47.0999 197.201 46.7 197.901 46.7L215.501 47C216.101 47 216.701 47.4 216.901 48L218.701 53.5C218.901 54 218.801 54.5 218.501 54.9C218.301 55.2 217.801 55.4 217.301 55.4ZM198.101 52.4H215.301L214.501 49.9L199.001 49.5999C198.801 50.1999 198.501 51.1 198.101 52.4Z" fill="#383E45"/>
<path d="M205.001 55.4C204.201 55.4 203.501 54.7 203.501 53.9V48.7C203.501 47.9 204.201 47.2 205.001 47.2C205.801 47.2 206.501 47.9 206.501 48.7V53.9C206.501 54.7 205.801 55.4 205.001 55.4Z" fill="#383E45"/>
<path d="M209.6 55.4C208.9 55.4 208.2 54.9 208.1 54.1C207.9 52.3 207.4 49.3 207.4 49C207.3 48.2 207.8 47.4 208.6 47.3C209.4 47.1 210.2 47.6 210.4 48.4C210.4 48.5 210.5 48.7 211.2 53.7C211.3 54.5 210.7 55.3 209.9 55.4C209.8 55.4 209.7 55.4 209.6 55.4Z" fill="#383E45"/>
<path d="M211.501 54.1999C211.501 54.1999 210.601 49.2999 210.601 48.9999C210.501 48.1999 211.001 47.3999 211.801 47.2999C212.601 47.1999 213.401 47.6999 213.501 48.4999C213.501 48.7999 214.401 53.5999 214.401 53.5999L211.501 54.1999Z" fill="#383E45"/>
<path d="M200.801 55.3999C199.901 55.2999 199.201 54.5999 199.301 53.7999C199.601 48.5999 199.701 48.2999 199.701 48.1999C199.801 47.3999 200.601 46.7999 201.401 46.9999C202.201 47.0999 202.801 47.8999 202.601 48.6999C202.601 48.9999 202.401 51.6999 202.201 53.9999C202.301 54.7999 201.601 55.3999 200.801 55.3999Z" fill="#383E45"/>
<path d="M197.201 74.3C196.401 74.3 195.701 73.6 195.701 72.8V54.2C195.701 53.4 196.401 52.7 197.201 52.7C198.001 52.7 198.701 53.4 198.701 54.2V72.8C198.701 73.7 198.001 74.3 197.201 74.3Z" fill="#383E45"/>
<path d="M206.701 74.3C205.901 74.3 205.201 73.6 205.201 72.8V54.2C205.201 53.4 205.901 52.7 206.701 52.7C207.501 52.7 208.201 53.4 208.201 54.2V72.8C208.201 73.7 207.501 74.3 206.701 74.3Z" fill="#383E45"/>
<path d="M214.601 72.4999C214.601 72.4999 214.101 54.5999 214.001 54.3999C214.001 53.5999 214.601 52.8999 215.501 52.8999C216.301 52.8999 217.001 53.4999 217.001 54.3999C217.001 54.5999 217.601 72.4999 217.601 72.4999H214.601Z" fill="#383E45"/>
<path d="M197.201 60.1999C196.401 60.1999 195.701 59.4999 195.701 58.6999C195.701 57.8999 196.401 57.1999 197.201 57.1999L215.701 56.9999C216.601 56.9999 217.201 57.6999 217.201 58.4999C217.201 59.2999 216.501 59.9999 215.701 59.9999L197.201 60.1999Z" fill="#383E45"/>
<path d="M197.201 69.3C196.401 69.3 195.701 68.6 195.701 67.8C195.701 67 196.401 66.3 197.201 66.3L215.701 66.1C216.601 66.1 217.201 66.8 217.201 67.6C217.201 68.4 216.501 69.1 215.701 69.1L197.201 69.3Z" fill="#383E45"/>
<path d="M197.8 48.2999C197.8 48.3999 196.5 53.2999 196.5 53.2999L216.6 53.6999L215.2 48.3999L197.8 48.2999Z" fill="#4A4F54"/>
<path d="M24.2002 18.7001L3.7002 37.2001L6.4002 40.6001L7.9002 41.4001L60.2002 42.5001L58.8002 44.0001L61.9002 46.9001L77.5002 34.3001L91.9002 49.3001L95.3002 47.1001L96.4002 44.0001L116.2 43.8001L119.2 44.6001L121.7 41.4001L106.5 20.2001L62.7002 18.7001H24.2002Z" fill="#4A4F54"/>
<path d="M7.10059 73.0001L8.00059 41.2001L59.6006 42.6001L61.7006 46.4001L89.1006 46.7001L93.3006 49.6001L96.4006 44.0001L116.201 44.2001L115.001 76.0001L92.5006 75.4001V78.8001H61.7006V74.5001L7.10059 73.0001Z" fill="#A67551"/>
<path d="M16.7003 65.6C17.3003 65.6 18.0003 65.4 18.6003 65.4C19.9003 65.3 20.6003 65.4 20.9003 63.9C21.3003 61.9 21.1003 59.8 21.6003 57.7C22.2003 55.3 22.2003 52.8 21.9003 50.4C21.8003 49.4 21.7003 47.9 20.8003 47.4C19.8003 46.9 18.4003 46.9 17.3003 46.9C14.9003 46.9 12.4003 47 10.0003 46.9C9.60026 46.9 8.90026 46.7 8.60026 47C8.20026 47.4 8.20026 48.5 8.10026 49.1C7.90026 50.8 7.90026 52.5 8.00026 54.2C8.10026 55.3 8.40026 56.3 8.70026 57.4C9.00026 58.7 9.10026 60.3 9.90026 61.5C11.2003 63.4 13.3003 64.5 15.4003 65.3" fill="#866349"/>
<path d="M115.8 67.9001L115.5 70.8001C115.5 70.8001 104.7 70.9001 102.5 70.8001C100.3 70.7001 98.4002 70.8001 97.9002 69.9001C97.4002 68.9001 97.2002 67.2001 97.2002 67.2001C97.2002 67.2001 98.6002 67.8001 101.2 67.8001C103.8 67.7001 115.8 67.9001 115.8 67.9001Z" fill="#866349"/>
<path d="M79.1002 74.8001C85.8002 75.1001 91.0002 75.4001 92.2002 75.5001L92.9002 73.2001C92.9002 73.2001 111.1 73.7001 113.4 73.9001C115.7 74.1001 115.1 76.0001 115.1 76.0001L115.2 76.3001H93.4002L92.5002 78.7001L62.5002 78.1001L62.2002 75.0001C62.2002 75.1001 71.6002 74.5001 79.1002 74.8001Z" fill="#866349"/>
<path d="M60.6006 73.9001C60.9006 73.7001 60.9006 72.5001 60.9006 72.0001C60.6006 70.4001 59.9006 71.2001 58.8006 71.0001C58.3006 68.7001 58.5006 65.9001 58.5006 63.5001C58.4006 60.7001 58.0006 58.0001 57.5006 55.3001C57.2006 53.8001 56.6006 52.4001 56.1006 51.0001C55.6006 49.3001 55.6006 48.7001 53.6006 48.6001C50.9006 48.4001 48.2006 48.5001 45.4006 48.4001C44.2006 48.4001 43.0006 48.4001 41.9006 48.4001C41.0006 48.4001 38.2006 48.1001 37.6006 48.7001C37.0006 49.3001 37.2006 51.8001 37.2006 52.6001C37.0006 54.0001 37.0006 55.5001 37.0006 57.0001C36.9006 61.8001 36.9006 66.8001 36.0006 71.4001C36.0006 71.4001 22.2006 70.0001 20.2006 70.3001C18.2006 70.6001 8.10059 71.0001 7.60059 71.1001C7.10059 71.2001 7.10059 73.0001 7.10059 73.0001L8.30059 74.3001H60.3006L60.6006 73.9001Z" fill="#866349"/>
<path d="M118.401 50.6001C118.601 51.3001 119.301 51.9001 119.701 52.5001C119.901 52.9001 120.101 53.4001 120.201 53.9001C120.301 54.5001 120.301 54.5001 119.601 54.6001C117.601 54.8001 115.601 54.8001 113.601 54.8001C109.201 54.8001 104.701 54.7001 100.301 54.8001C98.8005 54.8001 98.9005 54.0001 98.6005 52.7001C98.4005 51.5001 98.4005 50.4001 99.8005 50.5001C101.901 50.6001 103.901 50.2001 105.901 50.2001C108.101 50.2001 110.201 50.7001 112.301 50.5001C114.101 50.3001 115.901 50.1001 117.601 50.3001" fill="#494E55"/>
<path d="M92.9002 51.2C92.5002 51.2 92.1002 51 91.8002 50.7L78.0002 36.3L62.9002 48.1C62.3002 48.6 61.3002 48.5 60.8002 47.9L57.6002 44L8.0002 42.7C7.9002 42.7 7.9002 42.7 7.8002 42.7L5.9002 42.4C5.60019 42.3 5.3002 42.2 5.0002 41.9L1.6002 38C1.3002 37.7 1.2002 37.3 1.2002 36.9C1.2002 36.5 1.4002 36.1 1.7002 35.9L23.5002 17.7C23.8002 17.5 24.1002 17.4 24.5002 17.4L105.7 18.8C106.1 18.8 106.6 19 106.8 19.4L108.2 21.1L122.8 40.7C123.2 41.3 123.2 42 122.7 42.6L120 45.7C119.6 46.2 119 46.3 118.4 46.2L116.6 45.6L97.0002 45.5L96.0002 48.4C95.9002 48.6 95.8002 48.8 95.6002 49L93.8002 50.7C93.6002 51 93.3002 51.2 92.9002 51.2ZM78.2002 32.8C78.6002 32.8 79.0002 33 79.3002 33.3L92.9002 47.6L93.3002 47.2L94.5002 43.6C94.7002 43 95.3002 42.6 95.9002 42.6L116.9 42.5C117 42.5 117.2 42.5 117.4 42.6L118.5 43L119.7 41.5L105.8 22.9L104.9 21.8L24.9002 20.4L4.9002 37.1L6.9002 39.4L8.1002 39.6L58.3002 41C58.7002 41 59.1002 41.2 59.4002 41.6L62.1002 44.9L77.2002 33.1C77.5002 32.9 77.9002 32.8 78.2002 32.8Z" fill="#383E45"/>
<path d="M35.2003 57.4001C34.7003 57.4001 34.3003 57.2001 34.0003 56.8001C33.7003 56.4001 33.6003 55.9001 33.8003 55.4001L35.6003 49.9001C35.8003 49.3001 36.4003 48.9001 37.0003 48.9001L54.6003 48.6001C55.3003 48.6001 55.9003 49.0001 56.1003 49.7001C56.2003 49.9001 57.9003 55.2001 57.9003 55.2001C58.0003 55.7001 58.0003 56.1001 57.7003 56.5001C57.4003 56.9001 57.0003 57.1001 56.5003 57.1001L35.2003 57.4001ZM38.1003 51.9001L37.3003 54.4001L54.4003 54.2001C54.1003 53.3001 53.8003 52.4001 53.6003 51.6001L38.1003 51.9001Z" fill="#383E45"/>
<path d="M20 55.6C20 55.6 19.9 55.6 20 55.6L2.79995 55.3C2.29995 55.3 1.89995 55.1001 1.59995 54.7001C1.29995 54.3001 1.19995 53.8001 1.39995 53.4001L2.59995 49.4001C2.79995 48.8001 3.39995 48.3 4.09995 48.3L20.1 48.6C20.9 48.6 21.6 49.3 21.6 50.1V54.1C21.6 54.5 21.4 54.9001 21.2 55.2001C20.7 55.4001 20.4 55.6 20 55.6ZM4.79995 52.3L18.4 52.5V51.5L5.09995 51.4001L4.79995 52.3Z" fill="#383E45"/>
<path d="M25.5 55H29.5L31.4 58.2L29.7 62L25.5 62.4L23 58.1L25.5 55Z" fill="#9FCCCA"/>
<path d="M19.1002 54.8H3.7002V60H19.1002V54.8Z" fill="#9FCCCA"/>
<path d="M55.3002 60.7001H36.7002V69.6001H55.3002V60.7001Z" fill="#9FCCCA"/>
<path d="M84.7002 52.3H69.7002V65.4001H84.7002V52.3Z" fill="#9FCCCA"/>
<path d="M118.601 55.5H98.3008V62.3H118.601V55.5Z" fill="#9FCCCA"/>
<path d="M118.5 62.8H98.4004V67.2H118.5V62.8Z" fill="#7B4E2E"/>
<path d="M55.7004 56.8H36.4004V59.9001H55.7004V56.8Z" fill="#7B4E2E"/>
<path d="M55.2004 70.3H36.4004V74.4H55.2004V70.3Z" fill="#7B4E2E"/>
<path d="M19.4006 60.7001H4.10059V64.1001H19.4006V60.7001Z" fill="#7B4E2E"/>
<path d="M78.8 35.1001C79.8 36.1001 81.3 37.9001 82.3 38.9001C83.7 40.3001 84.9 41.9001 86.2 43.4001C86.7 44.0001 87.7 44.7001 88 45.3001C88.3 46.1001 87.2 46.2001 86.6 46.2001C84.8 46.4001 83 46.4001 81.2 46.4001C79.7 46.4001 78.3 46.4001 76.8 46.3001C75.8 46.2001 74.4 46.4001 73.5 46.2001" fill="#F8F6F5"/>
<path d="M78.8007 35.1001C77.6007 34.6001 76.5007 35.6001 75.5007 36.2001C73.5007 37.3001 71.8007 38.8001 70.0007 40.2001C68.3007 41.5001 66.4007 42.7001 65.0007 44.3001C64.6007 44.7001 64.3007 45.0001 64.0007 45.4001C63.6007 45.8001 63.7007 46.0001 64.2007 46.2001C65.1007 46.5001 66.1007 46.3001 67.0007 46.2001C68.4007 46.1001 69.8007 46.0001 71.2007 46.1001C72.0007 46.1001 73.0007 46.1001 73.8007 46.2001" fill="#D8D6D6"/>
<path d="M3.40039 53.4001H20.0004V50.3H4.20039L3.40039 53.4001Z" fill="#4A4F54"/>
<path d="M92.5002 79.9L62.2002 79.6C61.4002 79.6 60.7002 78.9 60.7002 78.1V46.9C60.7002 46.1 61.4002 45.4 62.2002 45.4C63.0002 45.4 63.7002 46.1 63.7002 46.9V76.6L91.0002 76.9L91.4002 49.6C91.4002 48.8 92.1002 48.1 92.9002 48.1C93.7002 48.1 94.4002 48.8 94.4002 49.6L94.0002 78.5C94.0002 79.3 93.3002 79.9 92.5002 79.9Z" fill="#383E45"/>
<path d="M77.7007 35.6001C75.9007 35.6001 74.7007 33.9001 73.9007 32.9001C73.1007 31.8001 73.1007 30.8001 73.2007 30.2001C73.5007 29.0001 74.4007 28.0001 75.9007 27.1001C76.5007 26.8001 77.2007 26.6001 77.9007 26.6001C79.5007 26.6001 80.7007 27.5001 81.2007 27.9001C82.0007 28.7001 82.4007 30.1001 82.3007 32.1001C82.3007 33.5001 81.4007 34.0001 80.7007 34.4001C80.4007 34.5001 80.1007 34.7001 79.7007 35.0001C79.0007 35.4001 78.4007 35.6001 77.7007 35.6001ZM77.9007 29.5001C77.7007 29.5001 77.6007 29.5001 77.4007 29.6001C76.5007 30.1001 76.2007 30.6001 76.1007 30.7001C76.1007 30.8001 76.2007 31.0001 76.2007 31.0001C77.1007 32.3001 77.5007 32.5001 77.6007 32.5001C77.6007 32.5001 77.7007 32.5001 77.9007 32.4001C78.4007 32.1001 78.8007 31.8001 79.1007 31.7001C79.1007 31.7001 79.2007 31.7001 79.2007 31.6001C79.2007 30.5001 79.0007 30.0001 79.0007 29.9001C78.8007 29.8001 78.4007 29.5001 77.9007 29.5001Z" fill="#383E45"/>
<path d="M61.9008 48.4C61.5008 48.4 61.1008 48.2 60.8008 47.9L57.7008 44.6C57.4008 44.3 57.3008 43.9 57.3008 43.5C57.3008 43.1 57.5008 42.7 57.8008 42.4L73.8008 29C74.4008 28.5 75.4008 28.5 75.9008 29.2C76.4008 29.8 76.4008 30.8 75.7008 31.3L61.0008 43.8L62.0008 44.9L75.8008 33.3C76.4008 32.8 77.4008 32.8 77.9008 33.5C78.4008 34.1 78.4008 35.1 77.7008 35.6L62.9008 48.1C62.6008 48.3 62.3008 48.4 61.9008 48.4Z" fill="#383E45"/>
<path d="M92.9002 51.2001C92.0002 51.2001 91.1002 50.8001 90.2002 50.0001C88.1002 48.0001 77.0002 35.3001 76.6002 34.7001C76.1002 34.1001 76.1002 33.1001 76.8002 32.6001C77.4002 32.1001 78.4002 32.1001 78.9002 32.8001C82.1002 36.5001 90.6002 46.3001 92.3002 47.8001C92.6002 48.1001 92.8002 48.2001 92.9002 48.2001L94.2002 45.7001L80.4002 32.6001C79.8002 32.0001 79.8002 31.1001 80.3002 30.5001C80.9002 29.9001 81.8002 29.9001 82.4002 30.4001L97.0002 44.3001C97.5002 44.8001 97.6002 45.5001 97.3002 46.1001L95.5002 49.6001C95.2002 50.2001 94.5002 51.0001 93.5002 51.2001C93.2002 51.1001 93.1002 51.2001 92.9002 51.2001Z" fill="#383E45"/>
<path d="M100.8 27C100.1 27 31.3002 25.9 28.4002 25.9C25.0002 25.9 24.7002 23.6 24.5002 22.3C24.4002 21.9 24.4002 21.5001 24.2002 21.2001C23.7002 20.1001 23.7002 19.2 24.2002 18.4C24.6002 17.7 25.4002 17.4 26.0002 17.3H26.1002C26.9002 17.3 103.3 18.7001 105.8 18.7001C107.4 18.7001 108.1 19.4 108.5 20C109.2 21.4 108.2 22.9 107.9 23.3L107.8 23.4C107.8 23.4 106.7 24.6 105.7 25.5C104.5 26.6 101.8 26.9 101.1 27C100.9 27 100.9 27 100.8 27ZM27.6002 22.8C27.6002 22.8 27.8002 22.9 28.4002 22.9C31.3002 22.9 97.0002 23.9 100.8 24C102 23.9 103.3 23.5 103.6 23.3C104.2 22.7 104.9 22.1001 105.3 21.7001C98.7002 21.6001 36.4002 20.5 27.1002 20.3C27.3002 20.9 27.4002 21.4 27.4002 21.9C27.5002 22.1 27.5002 22.7 27.6002 22.8Z" fill="#383E45"/>
<path d="M118.701 46.1C117.401 46.1 116.001 45.3 114.601 43.8C111.801 40.6 102.201 27 101.801 26.4C101.401 25.8 101.501 24.9 102.001 24.4L106.101 20.8C106.401 20.5 106.801 20.4 107.201 20.4C107.601 20.4 108.001 20.7 108.201 21L122.401 39.7C123.001 40.4 123.501 42 122.301 43.4C122.201 43.5 121.101 44.7 120.901 45C120.601 45.5 119.801 46.1 118.701 46.1ZM105.101 25.7C107.501 29.1 114.601 39.2 116.901 41.7C118.001 43 118.701 43 118.701 43H118.801C118.801 43 118.801 43 118.901 42.9C118.901 42.9 120.001 41.8 120.301 41.4L107.101 24L105.101 25.7Z" fill="#383E45"/>
<path d="M116.201 52C115.401 52 114.701 51.3 114.701 50.5V45.7001L94.6006 45.3C93.8006 45.3 93.1006 44.6 93.1006 43.8C93.1006 43 93.8006 42.3 94.6006 42.3L116.201 42.7001C117.001 42.7001 117.701 43.4001 117.701 44.2001V50.5C117.701 51.3 117.101 52 116.201 52Z" fill="#383E45"/>
<path d="M106.9 45.5C106.1 45.5 105.4 44.9 105.4 44.1C104.8 30.5 105 30.2 105.2 29.8C105.5 29 106.4 28.7 107.2 29.1C107.8 29.4 108.2 30.1 108 30.8C107.9 31.8 108.2 38.3 108.4 44.1C108.5 44.8 107.8 45.5 106.9 45.5C107 45.5 106.9 45.5 106.9 45.5Z" fill="#383E45"/>
<path d="M99.5004 45.4C98.7004 45.4 98.1004 44.8 98.0004 44C96.4004 25.8 96.4004 25.6 96.4004 25.5C96.4004 24.7 97.1004 24 97.9004 24C98.7004 24 99.4004 24.6 99.4004 25.4C99.4004 26 100.4 36.7 101 43.7C101.1 44.5 100.5 45.3 99.6004 45.3C99.6004 45.4 99.6004 45.4 99.5004 45.4Z" fill="#383E45"/>
<path d="M91.3 42.1C90.5 42.1 89.9 41.5 89.8 40.7L88.7 25.6C88.6 24.8 89.3 24.1 90.1 24C90.9 24 91.6 24.6 91.7 25.4L92.8 40.5C92.9 41.3 92.2 42 91.4 42.1C91.4 42.1 91.4 42.1 91.3 42.1Z" fill="#383E45"/>
<path d="M84.1006 35.6C83.3006 35.6 82.6006 34.9 82.6006 34.1V25.5C82.6006 24.7 83.3006 24 84.1006 24C84.9006 24 85.6006 24.7 85.6006 25.5V34.1C85.6006 34.9 84.9006 35.6 84.1006 35.6Z" fill="#383E45"/>
<path d="M120.8 56.4H98.3004C97.5004 56.4 96.9004 55.8 96.8004 55L96.4004 50.6C96.4004 50.2 96.5004 49.8 96.8004 49.5C97.1004 49.2 97.5004 49 97.9004 49H118.5C119.1 49 119.6 49.3 119.8 49.8L122 54C122.2 54.2 122.3 54.5 122.3 54.9C122.3 55.7 121.6 56.4 120.8 56.4ZM99.7004 53.4H118.4L117.7 52H99.5004L99.7004 53.4Z" fill="#383E45"/>
<path d="M101.6 68.8001C100.2 68.8001 99.0004 68.8001 98.3004 68.7001C97.5004 68.6001 97.0004 68.0001 96.9004 67.2001L96.4004 51.1001C96.4004 50.3001 97.0004 49.6001 97.9004 49.6001C98.7004 49.6001 99.4004 50.2001 99.4004 51.1001L99.8004 65.8001C104 65.9001 113.4 65.6001 117 65.4001V55.5001C117 54.7001 117.7 54.0001 118.5 54.0001C119.3 54.0001 120 54.7001 120 55.5001V66.8001C120 67.6001 119.4 68.3001 118.6 68.3001C118 68.3001 107.6 68.8001 101.6 68.8001Z" fill="#383E45"/>
<path d="M118.101 64.3001L98.3008 63.8C97.5008 63.8 96.8008 63.1 96.8008 62.3C96.8008 61.5 97.5008 60.8 98.3008 60.8L118.101 61.3C118.901 61.3 119.601 62 119.601 62.8C119.601 63.6 118.901 64.3001 118.101 64.3001Z" fill="#383E45"/>
<path d="M103.4 64.3C102.6 64.3 101.9 63.6 101.9 62.8V55C101.9 54.2 102.6 53.5 103.4 53.5C104.2 53.5 104.9 54.2 104.9 55V62.8C104.9 63.6 104.2 64.3 103.4 64.3Z" fill="#383E45"/>
<path d="M108.201 64.3C108.101 64.3 108.001 64.3 107.901 64.3C107.101 64.2 106.501 63.4 106.701 62.6C106.801 62.3 106.801 61 106.401 56.1C106.401 55.7 106.301 55.4 106.301 55.4C106.301 54.6 107.001 53.9 107.801 53.9C108.601 53.9 109.301 54.5 109.301 55.3C109.301 55.4 109.301 55.6 109.301 55.9C109.701 60.2 109.701 62.3 109.601 63.2C109.601 63.7 109.001 64.3 108.201 64.3Z" fill="#383E45"/>
<path d="M114.4 64.0001C113.6 64.0001 112.9 63.3001 112.9 62.5001V55.2001C112.9 54.4001 113.6 53.7001 114.4 53.7001C115.2 53.7001 115.9 54.4001 115.9 55.2001V62.5001C115.9 63.3001 115.2 64.0001 114.4 64.0001Z" fill="#383E45"/>
<path d="M92.9004 77.5C92.1004 77.5 91.4004 76.8 91.4004 76C91.4004 75.2 92.1004 74.5 92.9004 74.5L114.1 74.2V67.3C114.1 66.5 114.8 65.8 115.6 65.8C116.4 65.8 117.1 66.5 117.1 67.3V75.7C117.1 76.5 116.4 77.2 115.6 77.2L92.9004 77.5Z" fill="#383E45"/>
<path d="M88.8006 47.8H63.6006C62.8006 47.8 62.1006 47.1 62.1006 46.3C62.1006 45.5 62.8006 44.8 63.6006 44.8H88.8006C89.6006 44.8 90.3006 45.5 90.3006 46.3C90.3006 47.1 89.6006 47.8 88.8006 47.8Z" fill="#383E45"/>
<path d="M84.1002 44H68.2002C67.4002 44 66.7002 43.3 66.7002 42.5C66.7002 41.7 67.4002 41 68.2002 41H84.1002C84.9002 41 85.6002 41.7 85.6002 42.5C85.6002 43.3 84.9002 44 84.1002 44Z" fill="#383E45"/>
<path d="M75.0006 67.1C70.2006 67.1 69.4006 66.7 68.9006 66.1C68.6006 65.8 68.4006 65.3 68.4006 64.8C68.4006 64 68.2006 56.9 68.1006 52.7C68.1006 52.6 68.1006 52.5 68.1006 52.3C68.2006 51.8 68.8006 50.5 71.5006 50.5H71.9006C74.5006 50.5 84.3006 50.7 84.8006 50.8C85.6006 50.8 86.3006 51.5 86.3006 52.3C86.3006 52.6 86.5006 61.5 86.6006 64.9C86.6006 65.3 86.5006 65.7 86.2006 66C85.7006 66.6 84.5006 66.9 82.9006 66.9C82.6006 66.9 82.1006 66.9 81.5006 67C79.8006 67 77.3006 67.1 75.0006 67.1ZM71.4006 64C72.0006 64.1 73.0006 64.1 75.0006 64.1C77.2006 64.1 79.7006 64 81.3006 63.9C82.0006 63.9 82.5006 63.9 82.8006 63.8C83.1006 63.8 83.3006 63.8 83.5006 63.8C83.4006 61.3 83.3006 56.2 83.3006 53.7C80.4006 53.6 73.9006 53.5 72.0006 53.5H71.7006C71.5006 53.5 71.4006 53.5 71.2006 53.5C71.2006 55.9 71.4006 61.5 71.4006 64Z" fill="#383E45"/>
<path d="M77.1006 66.9001C76.3006 66.9001 75.6006 66.2001 75.6006 65.4001V52.7001C75.6006 51.9001 76.3006 51.2001 77.1006 51.2001C77.9006 51.2001 78.6006 51.9001 78.6006 52.7001V65.4001C78.6006 66.2001 77.9006 66.9001 77.1006 66.9001Z" fill="#383E45"/>
<path d="M84.9002 58.3H69.7002C68.9002 58.3 68.2002 57.6 68.2002 56.8C68.2002 56 68.9002 55.3 69.7002 55.3H84.8002C85.6002 55.3 86.3002 56 86.3002 56.8C86.3002 57.6 85.7002 58.3 84.9002 58.3Z" fill="#383E45"/>
<path d="M84.9002 62.5H69.7002C68.9002 62.5 68.2002 61.8 68.2002 61C68.2002 60.2 68.9002 59.5 69.7002 59.5H84.8002C85.6002 59.5 86.3002 60.2 86.3002 61C86.4002 61.9 85.7002 62.5 84.9002 62.5Z" fill="#383E45"/>
<path d="M69.9006 35.8C69.9006 35.8 69.8005 35.8 69.7005 35.8C68.9005 35.7 68.3006 35 68.4006 34.2L69.3006 25.4C69.4006 24.6 70.1006 24 70.9006 24.1C71.7006 24.2 72.3005 24.9 72.2005 25.7L71.3006 34.5C71.3006 35.2 70.6006 35.8 69.9006 35.8Z" fill="#383E45"/>
<path d="M61.5002 42.9C61.4002 42.9 61.4002 42.9 61.3002 42.9C60.5002 42.8 59.9002 42 60.0002 41.2L62.1002 25C62.2002 24.2 63.0002 23.6 63.8002 23.7C64.6002 23.8 65.2002 24.6 65.1002 25.4L63.0002 41.6C62.9002 42.4 62.2002 42.9 61.5002 42.9Z" fill="#383E45"/>
<path d="M52.7004 44C52.6004 44 52.5004 44 52.5004 44C51.7004 43.9 51.1004 43.1 51.2004 42.3C52.1004 36.2 53.6004 26.3 53.7004 25.2C53.7004 24.5 54.2004 23.9 54.9004 23.7C55.7004 23.5 56.5004 24.1 56.7004 24.9C56.8004 25.2 56.8004 25.5 54.2004 42.7C54.1004 43.5 53.4004 44 52.7004 44Z" fill="#383E45"/>
<path d="M42.3 43.5C42.2 43.5 42.1 43.5 41.9 43.5C41.1 43.3 40.6 42.5 40.8 41.7001C42.4 35.4001 44.8 25.9 45 25.1C45.1 24.4 45.7 23.8 46.5 23.8C47.3 23.8 48 24.5 48 25.3C48 25.6 48 25.7001 43.7 42.5C43.6 43 43 43.5 42.3 43.5Z" fill="#383E45"/>
<path d="M32.5006 43.5C32.3006 43.5 32.2006 43.5 32.0006 43.4C31.2006 43.1 30.8006 42.3 31.1006 41.5C33.5006 34.9 37.1006 24.9 37.3006 24.1C37.5006 23.5 38.1006 23 38.7006 23C39.5006 23 40.2006 23.7 40.2006 24.5C40.2006 24.9 40.2006 24.9 33.9006 42.5C33.7006 43.1 33.1006 43.5 32.5006 43.5Z" fill="#383E45"/>
<path d="M23.7 42.9C23.5 42.9 23.3 42.9 23.1 42.8C22.3 42.5 22 41.6 22.4 40.8C25.3 34.5 29.7 24.9 30.1 24C30.3 23.3 31 22.8 31.8 23C32.6 23.1 33.2 23.9 33 24.7C33 25 32.9 25.3 25.1 42.1C24.8 42.6 24.3 42.9 23.7 42.9Z" fill="#383E45"/>
<path d="M6.2002 42.3C5.8002 42.3 5.4002 42.1 5.1002 41.8L1.6002 38C1.3002 37.7001 1.2002 37.3001 1.2002 36.9001C1.2002 36.5001 1.4002 36.1001 1.7002 35.9001L23.5002 17.7C23.9002 17.4 24.5002 17.3 25.0002 17.4L26.0002 17.7C26.8002 18 27.2002 18.8 26.9002 19.6C26.6002 20.4 25.8002 20.8 25.0002 20.5L24.8002 20.4L4.8002 37.1L6.2002 38.7001C13.8002 32.6 24.4002 24.2 25.3002 23.4C25.7002 23 26.3002 22.8 26.9002 23C27.7002 23.3 28.1002 24.2 27.8002 24.9C27.6002 25.4 27.6002 25.4 7.0002 41.8C6.8002 42.2 6.5002 42.3 6.2002 42.3Z" fill="#383E45"/>
<path d="M29.6006 63.9H25.0006C24.4006 63.9 23.9006 63.6 23.6006 63L21.5006 58.7C21.2006 58.2 21.3006 57.6 21.7006 57.1L24.2006 54C24.5006 53.7 24.9006 53.4 25.4006 53.4H29.1006C29.6006 53.4 30.1006 53.7 30.4006 54.1L32.7006 57.8C33.0006 58.2 33.0006 58.8 32.8006 59.3L30.9006 63C30.6006 63.5 30.1006 63.9 29.6006 63.9ZM26.0006 60.9H28.6006L29.7006 58.8L28.3006 56.5H26.2006L24.7006 58.3L26.0006 60.9Z" fill="#383E45"/>
<path d="M7.60059 51.1001C6.80059 51.1001 6.10059 50.4001 6.10059 49.6001V41.1001C6.10059 40.7001 6.30059 40.3001 6.60059 40.0001C6.90059 39.7001 7.30059 39.6001 7.70059 39.6001L59.4006 41.0001C60.2006 41.0001 60.9006 41.7001 60.9006 42.5001C60.9006 43.3001 60.2006 44.0001 59.4006 44.0001L9.10059 42.7001V49.6001C9.10059 50.5001 8.40059 51.1001 7.60059 51.1001Z" fill="#383E45"/>
<path d="M62.2004 76.3L7.20039 75.5C6.40039 75.5 5.70039 74.8 5.70039 74L5.40039 64.5C5.40039 63.7 6.00039 63 6.90039 63C7.70039 63 8.40039 63.6 8.40039 64.5L8.60039 72.5L62.2004 73.3C63.0004 73.3 63.7004 74 63.7004 74.8C63.7004 75.7 63.0004 76.3 62.2004 76.3Z" fill="#383E45"/>
<path d="M2.70034 55.6C2.20034 55.6 1.80034 55.4 1.50034 55C1.20034 54.6 1.10034 54.1 1.30034 53.7L2.60034 49.5C2.80034 48.9 3.40034 48.4 4.00034 48.4H20.2003C21.0003 48.4 21.7003 49.1 21.7003 49.9V54C21.7003 54.8 21.0003 55.5 20.2003 55.5L2.70034 55.6ZM5.10034 51.3L4.70034 52.5L18.6003 52.3V51.2H5.10034V51.3Z" fill="#383E45"/>
<path d="M19.3008 65.6001H4.00078C3.20078 65.6001 2.50078 65.0001 2.50078 64.1001L2.30078 54.1001C2.30078 53.3001 2.90078 52.6001 3.80078 52.6001C4.60078 52.6001 5.30078 53.2001 5.30078 54.1001L5.50078 62.7001H17.9008V54.7001C17.9008 53.9001 18.6008 53.2001 19.4008 53.2001C20.2008 53.2001 20.9008 53.9001 20.9008 54.7001V64.2001C20.8008 64.9001 20.2008 65.6001 19.3008 65.6001Z" fill="#383E45"/>
<path d="M18.8006 61.4H4.10059C3.30059 61.4 2.60059 60.7 2.60059 59.9C2.60059 59.1 3.30059 58.4 4.10059 58.4H18.8006C19.6006 58.4 20.3006 59.1 20.3006 59.9C20.3006 60.8 19.6006 61.4 18.8006 61.4Z" fill="#383E45"/>
<path d="M10.7002 61.4001C9.9002 61.4001 9.2002 60.7001 9.2002 59.9001V54.7001C9.2002 53.9001 9.9002 53.2001 10.7002 53.2001C11.5002 53.2001 12.2002 53.9001 12.2002 54.7001V59.9001C12.2002 60.8001 11.5002 61.4001 10.7002 61.4001Z" fill="#383E45"/>
<path d="M7.60059 61.4001C6.80059 61.4001 6.10059 60.7001 6.10059 59.9001V54.7001C6.10059 53.9001 6.80059 53.2001 7.60059 53.2001C8.40059 53.2001 9.10059 53.9001 9.10059 54.7001V59.9001C9.10059 60.8001 8.40059 61.4001 7.60059 61.4001Z" fill="#383E45"/>
<path d="M15.1006 61.4001C14.3006 61.4001 13.6006 60.7001 13.6006 59.9001V54.7001C13.6006 53.9001 14.3006 53.2001 15.1006 53.2001C15.9006 53.2001 16.6006 53.9001 16.6006 54.7001V59.9001C16.6006 60.8001 15.9006 61.4001 15.1006 61.4001Z" fill="#383E45"/>
<path d="M56.5003 57.4001H35.2003C34.7003 57.4001 34.3003 57.2001 34.0003 56.8001C33.7003 56.4001 33.6003 55.9001 33.8003 55.4001L35.6003 49.9001C35.8003 49.3001 36.4003 48.9001 37.0003 48.9001L54.6003 48.6001C55.3003 48.6001 55.9003 49.1001 56.1003 49.7001C56.2003 49.9001 57.2003 53.1001 57.8003 55.2001C57.9003 55.4001 58.0003 55.6001 58.0003 55.9001C58.0003 56.7001 57.4003 57.4001 56.5003 57.4001ZM37.3003 54.4001H54.5003C54.1003 53.1001 53.8003 52.2001 53.6003 51.6001L38.1003 51.9001L37.3003 54.4001Z" fill="#383E45"/>
<path d="M47.5 57.4001C46.7 57.4001 46 56.7001 46 55.9001V50.7001C46 49.9001 46.7 49.2001 47.5 49.2001C48.3 49.2001 49 49.9001 49 50.7001V55.9001C49 56.7001 48.4 57.4001 47.5 57.4001Z" fill="#383E45"/>
<path d="M42.9006 57.4001C42.8006 57.4001 42.8006 57.4001 42.7006 57.4001C41.9006 57.3001 41.3006 56.5001 41.4006 55.7001C42.1006 50.7001 42.1006 50.5001 42.2006 50.4001C42.4006 49.6001 43.2006 49.1001 44.0006 49.3001C44.8006 49.5001 45.3005 50.3001 45.1005 51.1001C45.0005 51.5001 44.6006 54.4001 44.4006 56.2001C44.3006 56.9001 43.6006 57.4001 42.9006 57.4001Z" fill="#383E45"/>
<path d="M41 56.2001L38 55.7001C38 55.7001 38.9 50.8001 38.9 50.6001C39 49.8001 39.8 49.2001 40.6 49.4001C41.4 49.5001 42 50.3001 41.8 51.1001C41.8 51.3001 41 56.2001 41 56.2001Z" fill="#383E45"/>
<path d="M51.7 57.4001C50.9 57.4001 50.3 56.8001 50.2 56.0001C50 53.6001 49.9 51.0001 49.8 50.7001C49.7 49.9001 50.3 49.1001 51.1 49.0001C51.9 48.9001 52.7 49.4001 52.8 50.2001C52.8 50.3001 52.9 50.6001 53.2 55.8001C53.2 56.6001 52.6 57.4001 51.7 57.4001Z" fill="#383E45"/>
<path d="M55.3008 76.3001C54.5008 76.3001 53.8008 75.6001 53.8008 74.8001V56.3C53.8008 55.5 54.5008 54.8 55.3008 54.8C56.1008 54.8 56.8008 55.5 56.8008 56.3V74.9001C56.8008 75.7001 56.1008 76.3001 55.3008 76.3001Z" fill="#383E45"/>
<path d="M45.9004 76.3001C45.1004 76.3001 44.4004 75.6001 44.4004 74.8001V56.3C44.4004 55.5 45.1004 54.8 45.9004 54.8C46.7004 54.8 47.4004 55.5 47.4004 56.3V74.9001C47.4004 75.7001 46.7004 76.3001 45.9004 76.3001Z" fill="#383E45"/>
<path d="M37.9004 74.5L34.9004 74.4001C34.9004 74.4001 35.4004 56.5 35.5004 56.3C35.5004 55.5 36.2004 54.8 37.0004 54.8C37.8004 54.8 38.5004 55.5 38.5004 56.3C38.5004 56.6 37.9004 74.5 37.9004 74.5Z" fill="#383E45"/>
<path d="M55.3008 62.2L36.8008 62C36.0008 62 35.3008 61.3 35.3008 60.5C35.3008 59.7 36.0008 59 36.8008 59L55.3008 59.2C56.1008 59.2 56.8008 59.9 56.8008 60.7C56.8008 61.5 56.1008 62.2 55.3008 62.2Z" fill="#383E45"/>
<path d="M55.3008 71.3001L36.8008 71.1001C36.0008 71.1001 35.3008 70.4001 35.3008 69.6001C35.3008 68.8001 36.0008 68.1001 36.8008 68.1001L55.3008 68.3001C56.1008 68.3001 56.8008 69.0001 56.8008 69.8001C56.8008 70.7001 56.1008 71.3001 55.3008 71.3001Z" fill="#383E45"/>
<path d="M54.7 50.3C54.7 50.4 56 55.3 56 55.3L36 55.7001L37.4 50.4001L54.7 50.3Z" fill="#4A4F54"/>
<path d="M160.8 17.2L164.7 2.5H231.6L249.1 20.1L243.6 29L228.5 15.7L160.8 17.2Z" fill="#4A4F54"/>
<path d="M243.6 30.5C243.2 30.5 242.9 30.4 242.6 30.1L228 17.3L160.8 18.7C160.3 18.7 159.9 18.5 159.6 18.1C159.3 17.7 159.2 17.2 159.3 16.8L163.2 2.1C163.4 1.4 164 1 164.6 1H231.5C231.9 1 232.3 1.2 232.6 1.4L250.2 19C250.7 19.5 250.8 20.3 250.4 20.9L244.9 29.8C244.7 30.2 244.3 30.4 243.8 30.5C243.7 30.5 243.7 30.5 243.6 30.5ZM228.5 14.2C228.9 14.2 229.2 14.3 229.5 14.6L243.2 26.7L247.2 20.3L230.9 4H165.8L162.7 15.6L228.5 14.2Z" fill="#383E45"/>
<path d="M146.1 1.5H99.5004L92.9004 18L108.5 18.7H143.5C143.5 18.7 144.8 15.8 148.4 16L146.1 1.5Z" fill="#4A4F54"/>
<path d="M143.501 20.2H108.501L92.8007 19.5C92.3007 19.5 91.9007 19.2 91.6007 18.8C91.3007 18.4 91.3007 17.9 91.5007 17.4L98.2007 0.9C98.4007 0.4 98.9007 0 99.5007 0H146.101C146.801 0 147.501 0.5 147.601 1.3L149.801 15.8C149.901 16.2 149.701 16.7 149.401 17C149.101 17.3 148.701 17.5 148.201 17.5C145.801 17.4 144.801 19.1 144.801 19.3C144.601 19.9 144.001 20.2 143.501 20.2ZM95.1007 16.6L108.601 17.2H142.701C143.301 16.3 144.601 15 146.701 14.6L144.801 3H100.501L95.1007 16.6Z" fill="#383E45"/>
<path d="M82.5 17.9L71.8 1.5H15.6L1.5 22.1L14.9 24.1L24 17.6L82.5 17.9Z" fill="#4A4F54"/>
<path d="M14.9003 25.6C14.8003 25.6 14.8003 25.6 14.7003 25.6L1.30033 23.6C0.800325 23.5 0.400325 23.2 0.100325 22.7C-0.0996748 22.2 -0.0996748 21.7 0.200325 21.3L14.4003 0.7C14.6003 0.2 15.1003 0 15.6003 0H71.8003C72.3003 0 72.8003 0.3 73.1003 0.7L83.8003 17.1C84.1003 17.6 84.1003 18.2 83.9003 18.6C83.6003 19.1 83.1003 19.4 82.6003 19.4L24.6003 19.2L15.9003 25.4C15.5003 25.5 15.2003 25.6 14.9003 25.6ZM4.10033 21L14.5003 22.6L23.1003 16.5C23.4003 16.3 23.7003 16.2 24.0003 16.2L79.7003 16.4L70.9003 3H16.4003L4.10033 21Z" fill="#383E45"/>
<path d="M136.5 48H115.8C115 48 114.3 47.3 114.3 46.5C114.3 45.7 115 45 115.8 45H118C118 44.9 118.1 44.8 118.1 44.7L119.8 41.3C104.7 20.3 104.7 20.2 105.5 19C106 18.3 106.9 18.1 107.6 18.6C107.9 18.8 108.1 19.1 108.2 19.4C109.1 21 117.6 33 122.8 40.2C123.1 40.7 123.2 41.2 122.9 41.7L121.8 43.9L136.6 44.9C137.4 45 138 45.6 138 46.4C137.9 47.4 137.3 48 136.5 48ZM108.2 20.2C108.2 20.4 108.1 20.5 108 20.6C108.1 20.5 108.1 20.4 108.2 20.2Z" fill="#383E45"/>
</g>
<defs>
<clipPath id="clip0_623_2384">
<rect width="251.3" height="79.9" fill="white"/>
</clipPath>
</defs>
</svg>
