<svg width="235" height="107" viewBox="0 0 235 107" fill="none" xmlns="http://www.w3.org/2000/svg">
<g clip-path="url(#clip0_623_3459)">
<path d="M117.6 1.69995L123.9 7.39995C123.9 7.39995 124.2 12.2 125.8 12.7C127.4 13.2 133.8 14.4 134.7 15.9C135.5 17.3 136.4 18.1 137.2 18.1C138 18 140.9 18.2 142.1 19.6C143.3 21.1 147 24.6 148.1 25C149.2 25.4 150.5 24.7 151.1 24C151.7 23.2999 152.1 22.5 153.2 22.9C154.4 23.2999 156.4 23.9 157.4 26.1C158.4 28.2 158.3 29.4 159.9 29.2C161.6 29 163 29 163.8 30C164.7 31 165.6 28.2 165.6 28.2L169.8 28.4V44.2H187V39.4H192.7V44.2H214.6L215 39.7L219.9 39.7999L220.2 44.7999L220.5 51.5L222.7 51.9L223.1 95.8L232.9 96.2V100.6H199.6L199.3 103H136.6V105.2H98.3L97.8 103L34.8 102.6V100.6H1.5V96.3L11.3 95.8L11.7 52.0999L13.9 51.5L14.5 39.5H19.5L20.2 44.2999L41.8 43.7L42.1 39.5L47.5 39.7999L47.8 44.2999H64.6V28.2999H68.8V30.5C68.8 30.5 71.7 29.4 73 29.2999C74.3 29.2999 75.4 29.2999 75.4 29.2999C75.4 29.2999 76.2 25.2999 78.3 24.7999C80.4 24.1999 81.2 22.0999 82.4 23.2999C83.6 24.5 85.2 25.9 86.4 25.2C87.6 24.5 91.2 21.3 92.1 20.2C93.1 19.1 94.5 18.1 95.7 18.2C96.9 18.3 98.2 18.9 99.7 16.2C101.1 13.6 106.7 14.5 107.8 13.3C108.8 12.1 110.1 11 110.1 9.99995C110.1 8.99995 110.4 7.89995 110.4 7.89995L117.6 1.69995Z" fill="#C4BCA6"/>
<path d="M124.9 64.7999H110.2V95.5999H124.9V64.7999Z" fill="#008478"/>
<path d="M160.4 67.5H152.1V85.5H160.4V67.5Z" fill="#008478"/>
<path d="M205.4 67.5H197.1V84.8H205.4V67.5Z" fill="#008478"/>
<path d="M82.5002 67.5H74.2002V85.5H82.5002V67.5Z" fill="#008478"/>
<path d="M37.5002 67.5H29.2002V84.8H37.5002V67.5Z" fill="#008478"/>
<path d="M121.7 26.7H113V40.4H121.7V26.7Z" fill="#008478"/>
<path d="M138.7 29.1H129.5V40.4H138.7V29.1Z" fill="#008478"/>
<path d="M105.1 29.1H95.9004V40.4H105.1V29.1Z" fill="#008478"/>
<path d="M169.7 48.8999H64.5996V58.4999H169.7V48.8999Z" fill="#DCDDDD"/>
<path d="M92.2 57.3999H86.5V94.9999H92.2V57.3999Z" fill="#DCDDDD"/>
<path d="M137.7 99.2H97.7998V101.7H137.7V99.2Z" fill="#DCDDDD"/>
<path d="M148.7 57.3999H141.6V95.3999H148.7V57.3999Z" fill="#DCDDDD"/>
<path d="M169.9 58.6H163.9V95.5H169.9V58.6Z" fill="#DCDDDD"/>
<path d="M71.3998 57.3999H63.7998V95.7999H71.3998V57.3999Z" fill="#DCDDDD"/>
<path d="M69.4002 35.7999C69.4002 35.7999 72.3002 32.8999 74.2002 32.9999C76.1002 33.0999 79.4002 33.7999 80.1002 31.5999C80.9002 29.2999 83.1002 27.8999 85.0002 28.0999C86.9002 28.2999 90.5002 28.3999 92.1002 25.6999C93.8002 23.0999 96.8002 20.5999 98.7002 20.5999C100.6 20.5999 103 19.2999 104.9 17.7999C106.8 16.3999 112.2 16.0999 112.8 13.6999C113.4 11.2999 114.2 10.8999 114.2 10.8999H124.2V7.8999H110.2L109.2 12.3999C109.2 12.3999 104.5 13.0999 102.4 14.3999C100.3 15.6999 100.5 17.5999 98.5002 17.4999C96.6002 17.3999 95.4002 16.4999 93.7002 18.1999C92.0002 19.8999 87.3002 24.7999 86.3002 24.8999C85.3002 24.9999 83.6002 24.8999 82.3002 23.8999C81.0002 22.8999 78.7002 22.8999 78.2002 24.4999C77.7002 26.1999 75.6002 28.9999 73.5002 28.9999C71.4002 28.9999 68.7002 30.1999 68.7002 30.1999L69.4002 35.7999Z" fill="#969797"/>
<path d="M41.9002 61.6H16.7002V64.1H41.9002V61.6Z" fill="#969797"/>
<path d="M21.2002 64.1H16.7002V95.5H21.2002V64.1Z" fill="#969797"/>
<path d="M52.7004 61.2H48.4004V95H52.7004V61.2Z" fill="#969797"/>
<path d="M95.9 59.2H93V95.5H95.9V59.2Z" fill="#969797"/>
<path d="M141.5 59.2H93V61.5999H141.5V59.2Z" fill="#969797"/>
<path d="M186.1 61.6H170.8V64.8H186.1V61.6Z" fill="#969797"/>
<path d="M217.2 61.6H192.8V64.8H217.2V61.6Z" fill="#969797"/>
<path d="M217.2 62.6H212.4V94.9H217.2V62.6Z" fill="#969797"/>
<path d="M205.3 96.2999H200.5V100.3H205.3V96.2999Z" fill="#969797"/>
<path d="M187.1 63.2H181.5V95.5H187.1V63.2Z" fill="#969797"/>
<path d="M34.2002 95.7999H29.2002V100.5H34.2002V95.7999Z" fill="#969797"/>
<path d="M97.8 95.5H89.5V102.9H97.8V95.5Z" fill="#969797"/>
<path d="M145.8 95.7999H136.8V103.1H145.8V95.7999Z" fill="#969797"/>
<path d="M163.3 59.2H148.6V63.7999H163.3V59.2Z" fill="#969797"/>
<path d="M142.3 29.1H138.7V40.5H142.3V29.1Z" fill="#969797"/>
<path d="M125.6 26.7H121.7V40.5H125.6V26.7Z" fill="#969797"/>
<path d="M108.7 29.1H105.1V40.4H108.7V29.1Z" fill="#969797"/>
<path d="M174 44.1H170.8V62.6H174V44.1Z" fill="#969797"/>
<path d="M64.8 43.5H61V60.8H64.8V43.5Z" fill="#969797"/>
<path d="M181.5 65.7H175.5V95.5H181.5V65.7Z" fill="#008478"/>
<path d="M60.2002 65.3999H53.2002V95.7999H60.2002V65.3999Z" fill="#008478"/>
<path d="M169.9 60.2999H64.7002C63.9002 60.2999 63.2002 59.5999 63.2002 58.7999V48.8999C63.2002 48.0999 63.9002 47.3999 64.7002 47.3999H169.9C170.7 47.3999 171.4 48.0999 171.4 48.8999V58.7999C171.4 59.5999 170.7 60.2999 169.9 60.2999ZM66.2002 57.2999H168.4V50.3999H66.2002V57.2999Z" fill="#383E45"/>
<path d="M148.1 97.0999H142.1C141.3 97.0999 140.6 96.3999 140.6 95.5999V58.7999C140.6 57.9999 141.3 57.2999 142.1 57.2999H148.1C148.9 57.2999 149.6 57.9999 149.6 58.7999V95.5999C149.6 96.4999 148.9 97.0999 148.1 97.0999ZM143.6 94.0999H146.6V60.2999H143.6V94.0999Z" fill="#383E45"/>
<path d="M169.9 97.0999H163.9C163.1 97.0999 162.4 96.3999 162.4 95.5999V58.7999C162.4 57.9999 163.1 57.2999 163.9 57.2999H169.9C170.7 57.2999 171.4 57.9999 171.4 58.7999V95.5999C171.4 96.4999 170.7 97.0999 169.9 97.0999ZM165.4 94.0999H168.4V60.2999H165.4V94.0999Z" fill="#383E45"/>
<path d="M222.9 62.4999H169.9C169.1 62.4999 168.4 61.7999 168.4 60.9999V51.3999C168.4 50.5999 169.1 49.8999 169.9 49.8999H222.9C223.7 49.8999 224.4 50.5999 224.4 51.3999V60.9999C224.4 61.7999 223.7 62.4999 222.9 62.4999ZM171.4 59.4999H221.4V52.8999H171.4V59.4999Z" fill="#383E45"/>
<path d="M192.8 97.1H187C186.2 97.1 185.5 96.4 185.5 95.6V61C185.5 60.2 186.2 59.5 187 59.5H192.7C193.5 59.5 194.2 60.2 194.2 61V95.7C194.3 96.5 193.6 97.1 192.8 97.1ZM188.5 94.1H191.2V62.5H188.5V94.1Z" fill="#383E45"/>
<path d="M222.9 97.1H217.2C216.4 97.1 215.7 96.4 215.7 95.6V61C215.7 60.2 216.4 59.5 217.2 59.5H222.9C223.7 59.5 224.4 60.2 224.4 61V95.7C224.4 96.5 223.7 97.1 222.9 97.1ZM218.7 94.1H221.4V62.5H218.7V94.1Z" fill="#383E45"/>
<path d="M199.9 104.3H136.9C136.1 104.3 135.4 103.6 135.4 102.8V95.6C135.4 94.8 136.1 94.1 136.9 94.1H199.9C200.7 94.1 201.4 94.8 201.4 95.6V102.8C201.4 103.7 200.7 104.3 199.9 104.3ZM138.3 101.3H198.3V97.1H138.3V101.3Z" fill="#383E45"/>
<path d="M233.1 101.9H199.8C199 101.9 198.3 101.2 198.3 100.4V95.6C198.3 94.8 199 94.1 199.8 94.1H233.1C233.9 94.1 234.6 94.8 234.6 95.6V100.4C234.6 101.3 233.9 101.9 233.1 101.9ZM201.4 98.9H231.7V97.1H201.4V98.9Z" fill="#383E45"/>
<path d="M220.6 52.8H169.9C169.1 52.8 168.4 52.1 168.4 51.3V44.1C168.4 43.3 169.1 42.6 169.9 42.6H220.6C221.4 42.6 222.1 43.3 222.1 44.1V51.3C222.1 52.2 221.5 52.8 220.6 52.8ZM171.4 49.8H219.1V45.6H171.4V49.8Z" fill="#383E45"/>
<path d="M192.8 52.7999H187C186.2 52.7999 185.5 52.0999 185.5 51.2999V39.2999C185.5 38.4999 186.2 37.7999 187 37.7999H192.7C193.5 37.7999 194.2 38.4999 194.2 39.2999V51.2999C194.3 52.1999 193.6 52.7999 192.8 52.7999ZM188.5 49.7999H191.2V40.7999H188.5V49.7999Z" fill="#383E45"/>
<path d="M220 52.7999H214.7C213.9 52.7999 213.2 52.0999 213.2 51.2999V39.2999C213.2 38.4999 213.9 37.7999 214.7 37.7999H220C220.8 37.7999 221.5 38.4999 221.5 39.2999V51.2999C221.5 52.1999 220.9 52.7999 220 52.7999ZM216.2 49.7999H218.5V40.7999H216.2V49.7999Z" fill="#383E45"/>
<path d="M169.9 50.4H165.7C164.9 50.4 164.2 49.7 164.2 48.9V28.1C164.2 27.3 164.9 26.6 165.7 26.6H169.9C170.7 26.6 171.4 27.3 171.4 28.1V49C171.4 49.8 170.7 50.4 169.9 50.4ZM167.2 47.4H168.4V29.6H167.2V47.4Z" fill="#383E45"/>
<path d="M121.7 41.9H113C112.2 41.9 111.5 41.2 111.5 40.4V26.7C111.5 25.9 112.2 25.2 113 25.2H121.7C122.5 25.2 123.2 25.9 123.2 26.7V40.4C123.2 41.2 122.5 41.9 121.7 41.9ZM114.5 38.9H120.2V28.2H114.5V38.9Z" fill="#383E45"/>
<path d="M138.7 41.9H129.5C128.7 41.9 128 41.2 128 40.4V29.1C128 28.3 128.7 27.6 129.5 27.6H138.7C139.5 27.6 140.2 28.3 140.2 29.1V40.4C140.2 41.2 139.6 41.9 138.7 41.9ZM131 38.9H137.2V30.6H131V38.9Z" fill="#383E45"/>
<path d="M146 50.3999H138.7C137.9 50.3999 137.2 49.6999 137.2 48.8999V40.3999C137.2 39.5999 137.9 38.8999 138.7 38.8999H146C146.8 38.8999 147.5 39.5999 147.5 40.3999V48.8999C147.5 49.7999 146.8 50.3999 146 50.3999ZM140.2 47.3999H144.5V41.8999H140.2V47.3999Z" fill="#383E45"/>
<path d="M165.7 33.1C165.1 33.1 164.5 32.7 164.3 32.1C163.7 30.3 162.3 30.2 160 30.6C159.1 30.8 158.3 30.9 157.7 30.3C157.3 30 157.1 29.5 157.1 29C157.1 29 156.9 26.5 154.2 24.7C153 23.9 152.9 24 152.1 25.1C151.8 25.4 151.6 25.8 151.2 26.1C150.8 26.4 150.2 26.8 149.2 26.7C146.7 26.5 143 23.3 140.9 20.3C140 19.1 139.2 19.2 137.9 19.3C136.9 19.4 134.6 19.7 134 17.2C133.8 16.5 131.6 15.7 127.5 14.6C126.1 14.3 125.3 14 124.8 13.8C123 12.9 122.8 10.1 122.9 8.39996L116.3 2.49996C115.7 1.89996 115.6 0.999961 116.2 0.399961C116.8 -0.200039 117.7 -0.300039 118.3 0.299961L125.4 6.69996C125.8 6.99996 125.9 7.49996 125.9 7.99996C125.8 9.29996 125.9 10.8 126.2 11.2C126.5 11.3 127.5 11.6 128.2 11.8C132.6 12.9 136.2 14 136.9 16.5C137.1 16.5 137.3 16.5 137.5 16.4C138.9 16.2 141.4 15.9 143.3 18.6C145.5 21.6 148.3 23.5 149.3 23.7C149.4 23.6 149.5 23.4 149.7 23.3C150.5 22.2 152.3 20 155.8 22.2C158.3 23.8 159.4 25.9 159.9 27.5C161.8 27.2 165.7 26.8 167.2 31C167.5 31.8 167.1 32.6 166.3 32.9C166.1 33.1 165.9 33.1 165.7 33.1Z" fill="#383E45"/>
<path d="M158.8 41.9999C155 41.9999 150.1 41.9999 143.5 41.9999C130.4 41.9999 117.3 41.8999 117.3 41.8999C116.5 41.8999 115.8 41.1999 115.8 40.3999C115.8 39.5999 116.5 38.8999 117.3 38.8999C137.5 38.9999 168 39.0999 169.6 38.8999L169.7 40.3999H169.8L170.9 41.4999C170.5 41.8999 170.4 41.9999 158.8 41.9999Z" fill="#383E45"/>
<path d="M181.5 52.8H176.1C175.3 52.8 174.6 52.1 174.6 51.3V44.1C174.6 43.3 175.3 42.6 176.1 42.6H181.5C182.3 42.6 183 43.3 183 44.1V51.3C183 52.2 182.3 52.8 181.5 52.8ZM177.6 49.8H180V45.6H177.6V49.8Z" fill="#383E45"/>
<path d="M209 52.8H199.1C198.3 52.8 197.6 52.1 197.6 51.3V44.1C197.6 43.3 198.3 42.6 199.1 42.6H209C209.8 42.6 210.5 43.3 210.5 44.1V51.3C210.5 52.2 209.8 52.8 209 52.8ZM200.6 49.8H207.5V45.6H200.6V49.8Z" fill="#383E45"/>
<path d="M159.1 50.4H152.1C151.3 50.4 150.6 49.7 150.6 48.9V40.5C150.6 39.7 151.3 39 152.1 39H159.1C159.9 39 160.6 39.7 160.6 40.5V48.9C160.6 49.8 160 50.4 159.1 50.4ZM153.6 47.4H157.6V42H153.6V47.4Z" fill="#383E45"/>
<path d="M160.4 86.4H152.1C151.3 86.4 150.6 85.7 150.6 84.9V67.5C150.6 66.7 151.3 66 152.1 66H160.4C161.2 66 161.9 66.7 161.9 67.5V84.8C161.9 85.7 161.2 86.4 160.4 86.4ZM153.6 83.4H158.9V69H153.6V83.4Z" fill="#383E45"/>
<path d="M205.4 86.4H197.1C196.3 86.4 195.6 85.7 195.6 84.9V67.5C195.6 66.7 196.3 66 197.1 66H205.4C206.2 66 206.9 66.7 206.9 67.5V84.8C206.9 85.7 206.2 86.4 205.4 86.4ZM198.6 83.4H203.9V69H198.6V83.4Z" fill="#383E45"/>
<path d="M181.5 97.0999H175C174.2 97.0999 173.5 96.3999 173.5 95.5999V65.7999C173.5 64.9999 174.2 64.2999 175 64.2999H181.5C182.3 64.2999 183 64.9999 183 65.7999V95.6999C183 96.4999 182.3 97.0999 181.5 97.0999ZM176.4 94.0999H179.9V67.2999H176.4V94.0999Z" fill="#383E45"/>
<path d="M136.8 106.6H97.7998C96.9998 106.6 96.2998 105.9 96.2998 105.1V95.6C96.2998 94.8 96.9998 94.1 97.7998 94.1H136.8C137.6 94.1 138.3 94.8 138.3 95.6V105.1C138.3 105.9 137.7 106.6 136.8 106.6ZM99.2998 103.6H135.3V97.1H99.2998V103.6Z" fill="#383E45"/>
<path d="M124.9 97.0999H110.2C109.4 97.0999 108.7 96.3999 108.7 95.5999V64.7999C108.7 63.9999 109.4 63.2999 110.2 63.2999H124.9C125.7 63.2999 126.4 63.9999 126.4 64.7999V95.5999C126.4 96.4999 125.7 97.0999 124.9 97.0999ZM111.7 94.0999H123.4V66.2999H111.7V94.0999Z" fill="#383E45"/>
<path d="M124.9 85.1999H110.2C109.4 85.1999 108.7 84.4999 108.7 83.6999V71.3999C108.7 70.5999 109.4 69.8999 110.2 69.8999H124.9C125.7 69.8999 126.4 70.5999 126.4 71.3999V83.6999C126.4 84.4999 125.7 85.1999 124.9 85.1999ZM111.7 82.1999H123.4V72.8999H111.7V82.1999Z" fill="#383E45"/>
<path d="M117.5 97.0999C116.7 97.0999 116 96.3999 116 95.5999V64.7999C116 63.9999 116.7 63.2999 117.5 63.2999C118.3 63.2999 119 63.9999 119 64.7999V95.5999C119 96.4999 118.4 97.0999 117.5 97.0999Z" fill="#383E45"/>
<path d="M92.5 97.0999H86.5C85.7 97.0999 85 96.3999 85 95.5999V58.7999C85 57.9999 85.7 57.2999 86.5 57.2999H92.5C93.3 57.2999 94 57.9999 94 58.7999V95.5999C94 96.4999 93.3 97.0999 92.5 97.0999ZM88 94.0999H91V60.2999H88V94.0999Z" fill="#383E45"/>
<path d="M70.7002 97.0999H64.7002C63.9002 97.0999 63.2002 96.3999 63.2002 95.5999V58.7999C63.2002 57.9999 63.9002 57.2999 64.7002 57.2999H70.7002C71.5002 57.2999 72.2002 57.9999 72.2002 58.7999V95.5999C72.2002 96.4999 71.5002 97.0999 70.7002 97.0999ZM66.2002 94.0999H69.2002V60.2999H66.2002V94.0999Z" fill="#383E45"/>
<path d="M64.7002 62.4999H11.7002C10.9002 62.4999 10.2002 61.7999 10.2002 60.9999V51.3999C10.2002 50.5999 10.9002 49.8999 11.7002 49.8999H64.7002C65.5002 49.8999 66.2002 50.5999 66.2002 51.3999V60.9999C66.2002 61.7999 65.5002 62.4999 64.7002 62.4999ZM13.2002 59.4999H63.2002V52.8999H13.2002V59.4999Z" fill="#383E45"/>
<path d="M47.6004 97.1H41.9004C41.1004 97.1 40.4004 96.4 40.4004 95.6V61C40.4004 60.2 41.1004 59.5 41.9004 59.5H47.6004C48.4004 59.5 49.1004 60.2 49.1004 61V95.7C49.1004 96.5 48.4004 97.1 47.6004 97.1ZM43.4004 94.1H46.1004V62.5H43.4004V94.1Z" fill="#383E45"/>
<path d="M17.4002 97.1H11.7002C10.9002 97.1 10.2002 96.4 10.2002 95.6V61C10.2002 60.2 10.9002 59.5 11.7002 59.5H17.4002C18.2002 59.5 18.9002 60.2 18.9002 61V95.7C18.9002 96.5 18.3002 97.1 17.4002 97.1ZM13.2002 94.1H15.9002V62.5H13.2002V94.1Z" fill="#383E45"/>
<path d="M97.7998 104.3H34.7998C33.9998 104.3 33.2998 103.6 33.2998 102.8V95.6C33.2998 94.8 33.9998 94.1 34.7998 94.1H97.7998C98.5998 94.1 99.2998 94.8 99.2998 95.6V102.8C99.2998 103.7 98.5998 104.3 97.7998 104.3ZM36.2998 101.3H96.2998V97.1H36.2998V101.3Z" fill="#383E45"/>
<path d="M34.8 101.9H1.5C0.7 101.9 0 101.2 0 100.4V95.6C0 94.8 0.7 94.1 1.5 94.1H34.8C35.6 94.1 36.3 94.8 36.3 95.6V100.4C36.3 101.3 35.6 101.9 34.8 101.9ZM3 98.9H33.3V97.1H3V98.9Z" fill="#383E45"/>
<path d="M64.7 52.8H14C13.2 52.8 12.5 52.1 12.5 51.3V44.1C12.5 43.3 13.2 42.6 14 42.6H64.7C65.5 42.6 66.2 43.3 66.2 44.1V51.3C66.2 52.2 65.5 52.8 64.7 52.8ZM15.5 49.8H63.2V45.6H15.5V49.8Z" fill="#383E45"/>
<path d="M47.6004 52.7999H41.9004C41.1004 52.7999 40.4004 52.0999 40.4004 51.2999V39.2999C40.4004 38.4999 41.1004 37.7999 41.9004 37.7999H47.6004C48.4004 37.7999 49.1004 38.4999 49.1004 39.2999V51.2999C49.1004 52.1999 48.4004 52.7999 47.6004 52.7999ZM43.4004 49.7999H46.1004V40.7999H43.4004V49.7999Z" fill="#383E45"/>
<path d="M19.8996 52.7999H14.5996C13.7996 52.7999 13.0996 52.0999 13.0996 51.2999V39.2999C13.0996 38.4999 13.7996 37.7999 14.5996 37.7999H19.8996C20.6996 37.7999 21.3996 38.4999 21.3996 39.2999V51.2999C21.3996 52.1999 20.6996 52.7999 19.8996 52.7999ZM16.0996 49.7999H18.3996V40.7999H16.0996V49.7999Z" fill="#383E45"/>
<path d="M68.9002 50.4H64.7002C63.9002 50.4 63.2002 49.7 63.2002 48.9V28.1C63.2002 27.3 63.9002 26.6 64.7002 26.6H68.9002C69.7002 26.6 70.4002 27.3 70.4002 28.1V49C70.4002 49.8 69.7002 50.4 68.9002 50.4ZM66.2002 47.4H67.4002V29.6H66.2002V47.4Z" fill="#383E45"/>
<path d="M121.6 41.9H112.9C112.1 41.9 111.4 41.2 111.4 40.4V26.7C111.4 25.9 112.1 25.2 112.9 25.2H121.6C122.4 25.2 123.1 25.9 123.1 26.7V40.4C123.1 41.2 122.4 41.9 121.6 41.9ZM114.4 38.9H120.1V28.2H114.4V38.9Z" fill="#383E45"/>
<path d="M105.1 41.9H95.9004C95.1004 41.9 94.4004 41.2 94.4004 40.4V29.1C94.4004 28.3 95.1004 27.6 95.9004 27.6H105.1C105.9 27.6 106.6 28.3 106.6 29.1V40.4C106.6 41.2 105.9 41.9 105.1 41.9ZM97.4004 38.9H103.6V30.6H97.4004V38.9Z" fill="#383E45"/>
<path d="M95.8996 50.3999H88.5996C87.7996 50.3999 87.0996 49.6999 87.0996 48.8999V40.3999C87.0996 39.5999 87.7996 38.8999 88.5996 38.8999H95.8996C96.6996 38.8999 97.3996 39.5999 97.3996 40.3999V48.8999C97.3996 49.7999 96.6996 50.3999 95.8996 50.3999ZM90.0996 47.3999H94.3996V41.8999H90.0996V47.3999Z" fill="#383E45"/>
<path d="M68.9 33.0999C68.7 33.0999 68.6 33.0999 68.4 32.9999C67.6 32.6999 67.2 31.8999 67.5 31.0999C69 26.8999 72.9 27.2999 74.8 27.5999C75.2 25.9999 76.4 23.8999 78.9 22.2999C82.4 19.9999 84.2 22.2999 85 23.3999C85.1 23.5999 85.2 23.6999 85.4 23.7999C86.4 23.5999 89.2 21.6999 91.4 18.6999C93.3 15.9999 95.9 16.2999 97.2 16.4999C97.4 16.4999 97.6 16.5999 97.8 16.5999C98.5 14.0999 102.2 12.9999 106.5 11.8999C107.3 11.6999 108.2 11.4999 108.5 11.2999C108.8 10.8999 108.9 9.39994 108.8 8.09994C108.8 7.59994 108.9 7.19994 109.3 6.79994L116.4 0.399937C117 -0.200063 118 -0.100063 118.5 0.499937C119.1 1.09994 119 2.09994 118.4 2.59994L111.8 8.49994C111.9 10.1999 111.7 12.9999 109.9 13.8999C109.4 14.1999 108.6 14.3999 107.2 14.6999C103.1 15.6999 100.9 16.5999 100.7 17.2999C100.2 19.8999 97.9 19.5999 96.9 19.3999C95.5 19.1999 94.7 19.1999 93.9 20.3999C91.8 23.2999 88.1 26.4999 85.6 26.7999C84.6 26.8999 83.9 26.4999 83.6 26.1999C83.3 25.8999 83 25.4999 82.7 25.1999C81.9 24.0999 81.8 23.9999 80.6 24.7999C77.8 26.5999 77.7 29.0999 77.7 29.0999C77.7 29.5999 77.5 29.9999 77.1 30.3999C76.4 30.9999 75.7 30.7999 74.8 30.6999C72.4 30.2999 71.1 30.3999 70.5 32.1999C70.1 32.6999 69.5 33.0999 68.9 33.0999Z" fill="#383E45"/>
<path d="M75.8002 41.9999C64.2002 41.9999 64.1002 41.8999 63.7002 41.3999L64.8002 40.2999H66.3002H64.8002L65.0002 38.7999C66.6002 38.8999 97.2002 38.8999 117.3 38.7999C118.1 38.7999 118.8 39.4999 118.8 40.2999C118.8 41.0999 118.1 41.7999 117.3 41.7999C117.3 41.7999 104.2 41.8999 91.1002 41.8999C84.5002 41.9999 79.6002 41.9999 75.8002 41.9999Z" fill="#383E45"/>
<path d="M58.4996 52.8H53.0996C52.2996 52.8 51.5996 52.1 51.5996 51.3V44.1C51.5996 43.3 52.2996 42.6 53.0996 42.6H58.4996C59.2996 42.6 59.9996 43.3 59.9996 44.1V51.3C59.9996 52.2 59.3996 52.8 58.4996 52.8ZM54.6996 49.8H56.9996V45.6H54.5996V49.8H54.6996Z" fill="#383E45"/>
<path d="M35.4996 52.8H25.5996C24.7996 52.8 24.0996 52.1 24.0996 51.3V44.1C24.0996 43.3 24.7996 42.6 25.5996 42.6H35.4996C36.2996 42.6 36.9996 43.3 36.9996 44.1V51.3C36.9996 52.2 36.2996 52.8 35.4996 52.8ZM27.0996 49.8H33.9996V45.6H27.0996V49.8Z" fill="#383E45"/>
<path d="M82.5 50.4H75.5C74.7 50.4 74 49.7 74 48.9V40.5C74 39.7 74.7 39 75.5 39H82.5C83.3 39 84 39.7 84 40.5V48.9C84 49.8 83.3 50.4 82.5 50.4ZM77 47.4H81V42H77V47.4Z" fill="#383E45"/>
<path d="M82.5002 86.4H74.2002C73.4002 86.4 72.7002 85.7 72.7002 84.9V67.5C72.7002 66.7 73.4002 66 74.2002 66H82.5002C83.3002 66 84.0002 66.7 84.0002 67.5V84.8C84.0002 85.7 83.3002 86.4 82.5002 86.4ZM75.7002 83.4H81.0002V69H75.7002V83.4Z" fill="#383E45"/>
<path d="M37.5002 86.4H29.2002C28.4002 86.4 27.7002 85.7 27.7002 84.9V67.5C27.7002 66.7 28.4002 66 29.2002 66H37.5002C38.3002 66 39.0002 66.7 39.0002 67.5V84.8C39.0002 85.7 38.3002 86.4 37.5002 86.4ZM30.7002 83.4H36.0002V69H30.7002V83.4Z" fill="#383E45"/>
<path d="M59.7002 97.0999H53.2002C52.4002 97.0999 51.7002 96.3999 51.7002 95.5999V65.7999C51.7002 64.9999 52.4002 64.2999 53.2002 64.2999H59.7002C60.5002 64.2999 61.2002 64.9999 61.2002 65.7999V95.6999C61.2002 96.4999 60.5002 97.0999 59.7002 97.0999ZM54.7002 94.0999H58.2002V67.2999H54.7002V94.0999Z" fill="#383E45"/>
<path d="M124.5 9.3999H110.2C109.4 9.3999 108.7 8.6999 108.7 7.8999C108.7 7.0999 109.4 6.3999 110.2 6.3999H124.5C125.3 6.3999 126 7.0999 126 7.8999C126 8.6999 125.3 9.3999 124.5 9.3999Z" fill="#383E45"/>
</g>
<defs>
<clipPath id="clip0_623_3459">
<rect width="234.6" height="106.6" fill="white"/>
</clipPath>
</defs>
</svg>
